{
  "path": "../bed1/10498195655039251972_1.png",
  "width": 336,
  "height": 280,
  "texts": [
    {
      "x": 302,
      "y": 18,
      "w": 30,
      "h": 38,
      "text": "粉",
      "score": 1.0
    },
    {
      "x": 302,
      "y": 58,
      "w": 32,
      "h": 42,
      "text": "絲",
      "score": 1.0
    },
    {
      "x": 141,
      "y": 123,
      "w": 60,
      "h": 36,
      "text": "抽獎",
      "score": 1.0
    },
    {
      "x": 302,
      "y": 58,
      "w": 32,
      "h": 124,
      "text": "蜱",
      "score": 0.0
    },
    {
      "x": 135,
      "y": 153,
      "w": 60,
      "h": 36,
      "text": "活動",
      "score": 1.0
    },
    {
      "x": 302,
      "y": 144,
      "w": 32,
      "h": 38,
      "text": "好",
      "score": 1.0
    },
    {
      "x": 6,
      "y": 174,
      "w": 80,
      "h": 24,
      "text": "詳情請見",
      "score": 0.99
    },
    {
      "x": 209,
      "y": 177,
      "w": 86,
      "h": 20,
      "text": "ik-BEHUT{",
      "score": 0.4
    },
    {
      "x": 27,
      "y": 197,
      "w": 131,
      "h": 20,
      "text": "紐約家具殼計中心",
      "score": 0.26
    },
    {
      "x": 216,
      "y": 192,
      "w": 79,
      "h": 26,
      "text": "_汜元芙機",
      "score": 0.14
    },
    {
      "x": 302,
      "y": 188,
      "w": 32,
      "h": 36,
      "text": "禮",
      "score": 1.0
    },
    {
      "x": 7,
      "y": 219,
      "w": 56,
      "h": 20,
      "text": "粉綠團",
      "score": 0.34
    }
  ]
}