{
  "path": "../bed1/10558084378782303039.png",
  "width": 728,
  "height": 90,
  "texts": [
    {
      "x": 110,
      "y": 0,
      "w": 56,
      "h": 30,
      "text": "2019",
      "score": 1.0
    },
    {
      "x": 107,
      "y": 23,
      "w": 148,
      "h": 40,
      "text": "米蘭主題展",
      "score": 0.8
    },
    {
      "x": 140,
      "y": 58,
      "w": 114,
      "h": 24,
      "text": "即日起至10/13",
      "score": 0.39
    },
    {
      "x": 628,
      "y": 61,
      "w": 88,
      "h": 20,
      "text": "歡迎來爹觀",
      "score": 0.51
    }
  ]
}