{
  "path": "../bed1/11133183081994627810_1.png",
  "width": 300,
  "height": 600,
  "texts": [
    {
      "x": 14,
      "y": 14,
      "w": 126,
      "h": 48,
      "text": "Ulferls",
      "score": 0.36
    },
    {
      "x": 141,
      "y": 23,
      "w": 38,
      "h": 20,
      "text": "歐化",
      "score": 0.97
    },
    {
      "x": 139,
      "y": 37,
      "w": 42,
      "h": 20,
      "text": "傢俬",
      "score": 0.96
    },
    {
      "x": 20,
      "y": 67,
      "w": 259,
      "h": 74,
      "text": "里:想飛",
      "score": 0.72
    },
    {
      "x": 20,
      "y": 142,
      "w": 260,
      "h": 28,
      "text": "歐化傢俬為你 賺里數 自駕遊",
      "score": 0.84
    },
    {
      "x": 18,
      "y": 186,
      "w": 34,
      "h": 38,
      "text": "粘選傢俬",
      "score": 0.94
    },
    {
      "x": 47,
      "y": 187,
      "w": 229,
      "h": 36,
      "text": "6折+ HK$2 =A1",
      "score": 1.0
    },
    {
      "x": 185,
      "y": 489,
      "w": 50,
      "h": 16,
      "text": "茛大刊 Gaia2",
      "score": 0.08
    },
    {
      "x": 183,
      "y": 499,
      "w": 104,
      "h": 18,
      "text": "3hn3些位霓斟鄰習#化",
      "score": 0.0
    },
    {
      "x": 183,
      "y": 511,
      "w": 32,
      "h": 14,
      "text": "MllEon",
      "score": 0.07
    },
    {
      "x": 183,
      "y": 521,
      "w": 30,
      "h": 14,
      "text": "仔更值",
      "score": 0.0
    },
    {
      "x": 216,
      "y": 512,
      "w": 76,
      "h": 26,
      "text": "$24,960",
      "score": 1.0
    },
    {
      "x": 189,
      "y": 537,
      "w": 76,
      "h": 16,
      "text": "(可#m /.12,4801",
      "score": 0.05
    },
    {
      "x": 183,
      "y": 551,
      "w": 100,
      "h": 14,
      "text": "(71#1111t4 . 11M834|",
      "score": 0.0
    },
    {
      "x": 121,
      "y": 579,
      "w": 164,
      "h": 14,
      "text": "5im1gC53化+*'亞+#Hi_'#gfW工",
      "score": 0.0
    }
  ]
}