{
  "path": "../bed1/11151483947493998157.png",
  "width": 336,
  "height": 280,
  "texts": [
    {
      "x": 9,
      "y": 1,
      "w": 318,
      "h": 42,
      "text": "日月光新品家年/華",
      "score": 0.93
    },
    {
      "x": 227,
      "y": 37,
      "w": 96,
      "h": 20,
      "text": "即日起至10/13",
      "score": 0.73
    },
    {
      "x": 68,
      "y": 254,
      "w": 200,
      "h": 24,
      "text": "購物滿額禮點數雙倍送",
      "score": 1.0
    }
  ]
}