{
  "path": "../bed1/11170436602178349701_1.png",
  "width": 728,
  "height": 90,
  "texts": [
    {
      "x": 574,
      "y": 22,
      "w": 110,
      "h": 24,
      "text": "亞洲最頂級",
      "score": 0.91
    },
    {
      "x": 26,
      "y": 52,
      "w": 138,
      "h": 24,
      "text": "紐絢家具骰計甲心",
      "score": 0.27
    },
    {
      "x": 575,
      "y": 55,
      "w": 106,
      "h": 20,
      "text": "居家喟物中心",
      "score": 0.09
    },
    {
      "x": 31,
      "y": 69,
      "w": 130,
      "h": 14,
      "text": "吉6茴6eiii",
      "score": 0.0
    }
  ]
}