{
  "path": "../bed1/11569350743681075087_1.png",
  "width": 250,
  "height": 250,
  "texts": [
    {
      "x": 39,
      "y": 9,
      "w": 122,
      "h": 20,
      "text": "紐約家具設計中心",
      "score": 0.2
    },
    {
      "x": 39,
      "y": 23,
      "w": 115,
      "h": 14,
      "text": "HEn Toii Dtllol CEit",
      "score": 0.0
    },
    {
      "x": 183,
      "y": 29,
      "w": 50,
      "h": 20,
      "text": "T0P",
      "score": 0.86
    },
    {
      "x": 169,
      "y": 225,
      "w": 66,
      "h": 18,
      "text": "屈索田砌中心",
      "score": 0.0
    }
  ]
}