{
  "path": "../bed1/1194035155399556036_2.png",
  "width": 970,
  "height": 250,
  "texts": [
    {
      "x": 41,
      "y": 29,
      "w": 16,
      "h": 14,
      "text": "mon5",
      "score": 0.1
    },
    {
      "x": 64,
      "y": 16,
      "w": 246,
      "h": 40,
      "text": "紐約家具設計中心",
      "score": 0.75
    },
    {
      "x": 8,
      "y": 76,
      "w": 308,
      "h": 56,
      "text": "網路周年慶抽獎",
      "score": 0.68
    },
    {
      "x": 74,
      "y": 142,
      "w": 180,
      "h": 32,
      "text": "2019.523-80!",
      "score": 0.31
    },
    {
      "x": 342,
      "y": 148,
      "w": 170,
      "h": 26,
      "text": "AB Crunch 健腹器",
      "score": 0.96
    },
    {
      "x": 728,
      "y": 142,
      "w": 148,
      "h": 26,
      "text": "mini魔法推脂機",
      "score": 0.69
    },
    {
      "x": 58,
      "y": 202,
      "w": 212,
      "h": 28,
      "text": "詳情請見臉書粉絲團",
      "score": 0.98
    },
    {
      "x": 520,
      "y": 198,
      "w": 182,
      "h": 26,
      "text": "可攜式遠紅外光波房",
      "score": 0.91
    }
  ]
}