{
  "path": "../bed1/12108544782684470855_0.png",
  "width": 728,
  "height": 90,
  "texts": [
    {
      "x": 637,
      "y": 7,
      "w": 64,
      "h": 16,
      "text": "煮大刊 Camelin",
      "score": 0.3
    },
    {
      "x": 214,
      "y": 12,
      "w": 79,
      "h": 21,
      "text": "G atoua",
      "score": 0.18
    },
    {
      "x": 433,
      "y": 17,
      "w": 24,
      "h": 14,
      "text": "uptc",
      "score": 0.32
    },
    {
      "x": 637,
      "y": 17,
      "w": 54,
      "h": 18,
      "text": "全真臣]旺位",
      "score": 0.01
    },
    {
      "x": 8,
      "y": 20,
      "w": 126,
      "h": 48,
      "text": "Ullfeis|",
      "score": 0.47
    },
    {
      "x": 133,
      "y": 29,
      "w": 44,
      "h": 20,
      "text": "歐化",
      "score": 0.22
    },
    {
      "x": 427,
      "y": 25,
      "w": 86,
      "h": 42,
      "text": "50%",
      "score": 1.0
    },
    {
      "x": 637,
      "y": 29,
      "w": 60,
      "h": 30,
      "text": "王玷矛k化5415m",
      "score": 0.05
    },
    {
      "x": 134,
      "y": 42,
      "w": 44,
      "h": 24,
      "text": "傢俬",
      "score": 0.9
    },
    {
      "x": 189,
      "y": 22,
      "w": 133,
      "h": 67,
      "text": "SALE",
      "score": 0.83
    },
    {
      "x": 495,
      "y": 61,
      "w": 16,
      "h": 18,
      "text": "olf",
      "score": 0.36
    },
    {
      "x": 638,
      "y": 54,
      "w": 42,
      "h": 26,
      "text": "$20",
      "score": 1.0
    },
    {
      "x": 695,
      "y": 77,
      "w": 28,
      "h": 12,
      "text": "{1=!",
      "score": 0.01
    }
  ]
}