{
  "path": "../bed1/12127428392090562869_2.png",
  "width": 200,
  "height": 200,
  "texts": [
    {
      "x": 27,
      "y": 3,
      "w": 103,
      "h": 28,
      "text": "製裂黜",
      "score": 0.0
    },
    {
      "x": 147,
      "y": 23,
      "w": 40,
      "h": 20,
      "text": "TOP",
      "score": 0.72
    },
    {
      "x": 151,
      "y": 179,
      "w": 34,
      "h": 12,
      "text": "口T",
      "score": 0.1
    }
  ]
}