{
  "path": "../bed1/12171280058121300613.png",
  "width": 1200,
  "height": 628,
  "texts": [
    {
      "x": 232,
      "y": 36,
      "w": 69,
      "h": 28,
      "text": "歐化",
      "score": 0.84
    },
    {
      "x": 20,
      "y": 18,
      "w": 212,
      "h": 81,
      "text": "Ulferis",
      "score": 0.77
    },
    {
      "x": 231,
      "y": 57,
      "w": 72,
      "h": 34,
      "text": "傢俬",
      "score": 0.99
    },
    {
      "x": 69,
      "y": 109,
      "w": 190,
      "h": 34,
      "text": "賞家.更想家",
      "score": 0.65
    },
    {
      "x": 436,
      "y": 147,
      "w": 335,
      "h": 179,
      "text": "全場",
      "score": 1.0
    },
    {
      "x": 921,
      "y": 111,
      "w": 156,
      "h": 208,
      "text": "4",
      "score": 1.0
    },
    {
      "x": 1063,
      "y": 241,
      "w": 92,
      "h": 86,
      "text": "折",
      "score": 1.0
    },
    {
      "x": 26,
      "y": 199,
      "w": 245,
      "h": 338,
      "text": "3",
      "score": 1.0
    },
    {
      "x": 438,
      "y": 319,
      "w": 324,
      "h": 63,
      "text": "陳列傢俬清貨",
      "score": 0.99
    },
    {
      "x": 253,
      "y": 412,
      "w": 130,
      "h": 130,
      "text": "折",
      "score": 1.0
    },
    {
      "x": 869,
      "y": 394,
      "w": 133,
      "h": 185,
      "text": "5",
      "score": 1.0
    },
    {
      "x": 980,
      "y": 503,
      "w": 78,
      "h": 78,
      "text": "折",
      "score": 1.0
    },
    {
      "x": 1076,
      "y": 584,
      "w": 107,
      "h": 34,
      "text": "僵忠期有限",
      "score": 0.47
    }
  ]
}