{
  "path": "../bed1/12456725847281819489_1.png",
  "width": 120,
  "height": 600,
  "texts": [
    {
      "x": 2,
      "y": 294,
      "w": 114,
      "h": 24,
      "text": "歐莢百大品牌",
      "score": 0.45
    },
    {
      "x": 23,
      "y": 310,
      "w": 97,
      "h": 27,
      "text": "紐齣竅具故計申心",
      "score": 0.01
    }
  ]
}