{
  "path": "../bed1/12674433372974421911.png",
  "width": 336,
  "height": 280,
  "texts": [
    {
      "x": 57,
      "y": 33,
      "w": 34,
      "h": 12,
      "text": "FLASW",
      "score": 0.09
    },
    {
      "x": 61,
      "y": 63,
      "w": 26,
      "h": 16,
      "text": "70%",
      "score": 0.91
    },
    {
      "x": 114,
      "y": 28,
      "w": 181,
      "h": 62,
      "text": "糯家具人賞",
      "score": 0.0
    },
    {
      "x": 140,
      "y": 86,
      "w": 170,
      "h": 24,
      "text": "22週年嘎 即日起至6/2",
      "score": 0.18
    },
    {
      "x": 118,
      "y": 240,
      "w": 152,
      "h": 26,
      "text": "日月光國際家飾館",
      "score": 0.99
    }
  ]
}