{
  "path": "../bed1/13064480340289992147_0.png",
  "width": 250,
  "height": 250,
  "texts": [
    {
      "x": 67,
      "y": 17,
      "w": 122,
      "h": 20,
      "text": "紐拘家具設計中心",
      "score": 0.05
    },
    {
      "x": 54,
      "y": 48,
      "w": 124,
      "h": 50,
      "text": "周年慶",
      "score": 0.96
    },
    {
      "x": 69,
      "y": 92,
      "w": 93,
      "h": 26,
      "text": "Anniversary",
      "score": 0.97
    },
    {
      "x": 80,
      "y": 111,
      "w": 71,
      "h": 36,
      "text": "523-8/4",
      "score": 0.8
    },
    {
      "x": 13,
      "y": 149,
      "w": 202,
      "h": 36,
      "text": "歐 美 同 步 價",
      "score": 0.65
    }
  ]
}