{
  "path": "../bed1/13244026931271668575.png",
  "width": 160,
  "height": 600,
  "texts": [
    {
      "x": 37,
      "y": 33,
      "w": 106,
      "h": 20,
      "text": "日月光匡際家飾館",
      "score": 0.64
    },
    {
      "x": 25,
      "y": 88,
      "w": 123,
      "h": 42,
      "text": "糯祺犬",
      "score": 0.0
    },
    {
      "x": 17,
      "y": 133,
      "w": 132,
      "h": 20,
      "text": "22週年匱 即日起至6.2",
      "score": 0.33
    },
    {
      "x": 53,
      "y": 440,
      "w": 53,
      "h": 25,
      "text": "FLASH",
      "score": 0.99
    },
    {
      "x": 46,
      "y": 460,
      "w": 66,
      "h": 32,
      "text": "快閃",
      "score": 1.0
    },
    {
      "x": 41,
      "y": 489,
      "w": 54,
      "h": 20,
      "text": "Ci70%",
      "score": 1.0
    },
    {
      "x": 59,
      "y": 509,
      "w": 30,
      "h": 12,
      "text": "E\"",
      "score": 0.02
    },
    {
      "x": 15,
      "y": 568,
      "w": 127,
      "h": 20,
      "text": "肆]活山撇法W見館內_明",
      "score": 0.0
    }
  ]
}