{
  "path": "../bed1/13555061357890071768_2.png",
  "width": 320,
  "height": 50,
  "texts": [
    {
      "x": 27,
      "y": 0,
      "w": 58,
      "h": 19,
      "text": "紐絢家具",
      "score": 0.09
    },
    {
      "x": 4,
      "y": 22,
      "w": 90,
      "h": 24,
      "text": "周年慶;4-o4",
      "score": 0.02
    }
  ]
}