{
  "path": "../bed1/14138600216080226975_0.png",
  "width": 336,
  "height": 280,
  "texts": [
    {
      "x": 50,
      "y": 6,
      "w": 138,
      "h": 24,
      "text": "紐絢家具設計中心",
      "score": 0.97
    },
    {
      "x": 55,
      "y": 23,
      "w": 132,
      "h": 16,
      "text": "4w WopLp Ofsici CfTFi",
      "score": 0.02
    },
    {
      "x": 232,
      "y": 28,
      "w": 58,
      "h": 24,
      "text": "T0P",
      "score": 0.61
    },
    {
      "x": 269,
      "y": 225,
      "w": 44,
      "h": 20,
      "text": "最-疳級",
      "score": 0.01
    }
  ]
}