{
  "path": "../bed1/14205888520651198471_0.png",
  "width": 970,
  "height": 250,
  "texts": [
    {
      "x": 12,
      "y": 144,
      "w": 262,
      "h": 48,
      "text": "歐美百大品牌",
      "score": 0.98
    },
    {
      "x": 35,
      "y": 203,
      "w": 14,
      "h": 14,
      "text": "臣",
      "score": 0.0
    },
    {
      "x": 57,
      "y": 193,
      "w": 222,
      "h": 36,
      "text": "紐約家具設計中心",
      "score": 0.86
    }
  ]
}