{
  "path": "../bed1/14205888520651198471_1.png",
  "width": 970,
  "height": 250,
  "texts": [
    {
      "x": 934,
      "y": 4,
      "w": 32,
      "h": 38,
      "text": "粉",
      "score": 1.0
    },
    {
      "x": 73,
      "y": 27,
      "w": 186,
      "h": 36,
      "text": "紐約家具設計中",
      "score": 1.0
    },
    {
      "x": 934,
      "y": 44,
      "w": 32,
      "h": 40,
      "text": "絲",
      "score": 1.0
    },
    {
      "x": 46,
      "y": 70,
      "w": 216,
      "h": 72,
      "text": "周 年慶",
      "score": 0.81
    },
    {
      "x": 934,
      "y": 80,
      "w": 32,
      "h": 42,
      "text": "抽",
      "score": 1.0
    },
    {
      "x": 934,
      "y": 118,
      "w": 32,
      "h": 42,
      "text": "好",
      "score": 1.0
    },
    {
      "x": 72,
      "y": 134,
      "w": 165,
      "h": 48,
      "text": "Anniversary",
      "score": 1.0
    },
    {
      "x": 358,
      "y": 170,
      "w": 142,
      "h": 24,
      "text": "二英輝葉 AB Crunch",
      "score": 0.45
    },
    {
      "x": 934,
      "y": 160,
      "w": 32,
      "h": 40,
      "text": "禮",
      "score": 1.0
    },
    {
      "x": 98,
      "y": 170,
      "w": 110,
      "h": 54,
      "text": "523-8/4",
      "score": 0.67
    },
    {
      "x": 354,
      "y": 186,
      "w": 50,
      "h": 24,
      "text": "健腹器",
      "score": 0.99
    },
    {
      "x": 666,
      "y": 184,
      "w": 100,
      "h": 24,
      "text": "三獎輝葉mini",
      "score": 0.48
    },
    {
      "x": 268,
      "y": 210,
      "w": 208,
      "h": 28,
      "text": "詳情請見臉書粉絲團",
      "score": 0.94
    },
    {
      "x": 497,
      "y": 211,
      "w": 110,
      "h": 20,
      "text": "頭奘 輝葉可拮式",
      "score": 0.11
    },
    {
      "x": 666,
      "y": 202,
      "w": 78,
      "h": 24,
      "text": "魔法推脂機",
      "score": 0.6
    },
    {
      "x": 499,
      "y": 229,
      "w": 88,
      "h": 20,
      "text": "遠紅外光渡房",
      "score": 0.41
    }
  ]
}