{
  "path": "../bed1/14830783463629792873_1.png",
  "width": 320,
  "height": 100,
  "texts": [
    {
      "x": 235,
      "y": 7,
      "w": 68,
      "h": 20,
      "text": "亞酬鼠疳a",
      "score": 0.0
    },
    {
      "x": 235,
      "y": 29,
      "w": 56,
      "h": 16,
      "text": "居$口",
      "score": 0.0
    },
    {
      "x": 226,
      "y": 78,
      "w": 86,
      "h": 22,
      "text": "彗*馳",
      "score": 0.0
    }
  ]
}