{
  "path": "../bed1/1551341056061777202_1.png",
  "width": 728,
  "height": 90,
  "texts": [
    {
      "x": 574,
      "y": 22,
      "w": 110,
      "h": 24,
      "text": "亞洲最頂級",
      "score": 0.97
    },
    {
      "x": 26,
      "y": 52,
      "w": 138,
      "h": 32,
      "text": "紐約家累設計蛐",
      "score": 0.0
    },
    {
      "x": 575,
      "y": 55,
      "w": 106,
      "h": 20,
      "text": "居家晒物中心",
      "score": 0.05
    },
    {
      "x": 89,
      "y": 69,
      "w": 20,
      "h": 14,
      "text": "H5",
      "score": 0.0
    },
    {
      "x": 123,
      "y": 69,
      "w": 38,
      "h": 14,
      "text": "CLNi",
      "score": 0.18
    }
  ]
}