{
  "path": "../bed1/16398194904040303222.png",
  "width": 336,
  "height": 280,
  "texts": [
    {
      "x": 30,
      "y": 64,
      "w": 60,
      "h": 32,
      "text": "2019",
      "score": 1.0
    },
    {
      "x": 27,
      "y": 89,
      "w": 160,
      "h": 42,
      "text": "米蘭主題展",
      "score": 0.96
    },
    {
      "x": 62,
      "y": 128,
      "w": 124,
      "h": 24,
      "text": "即日起至10/13",
      "score": 0.98
    },
    {
      "x": 226,
      "y": 244,
      "w": 88,
      "h": 24,
      "text": "歡迎來參觀",
      "score": 0.96
    }
  ]
}