{
  "path": "../bed1/16625276428021743052.png",
  "width": 728,
  "height": 90,
  "texts": [
    {
      "x": 21,
      "y": 0,
      "w": 117,
      "h": 44,
      "text": "年終慶",
      "score": 1.0
    },
    {
      "x": 630,
      "y": 4,
      "w": 88,
      "h": 28,
      "text": "紐約家具",
      "score": 0.98
    },
    {
      "x": 22,
      "y": 44,
      "w": 114,
      "h": 26,
      "text": "除 舊 佈 新",
      "score": 0.38
    },
    {
      "x": 594,
      "y": 38,
      "w": 126,
      "h": 24,
      "text": "換家具過好年",
      "score": 0.99
    },
    {
      "x": 23,
      "y": 66,
      "w": 111,
      "h": 18,
      "text": "10.10-01.0 5",
      "score": 0.77
    },
    {
      "x": 594,
      "y": 62,
      "w": 126,
      "h": 24,
      "text": "網路抽獎活動",
      "score": 0.99
    }
  ]
}