{
  "path": "../bed1/16757719252226570389.png",
  "width": 250,
  "height": 250,
  "texts": [
    {
      "x": 34,
      "y": 6,
      "w": 202,
      "h": 32,
      "text": "日月光國際家飾館 送好禮",
      "score": 0.99
    },
    {
      "x": 127,
      "y": 117,
      "w": 20,
      "h": 20,
      "text": "2",
      "score": 0.96
    },
    {
      "x": 49,
      "y": 137,
      "w": 154,
      "h": 20,
      "text": "遇田你最愛的3家風格",
      "score": 0.0
    }
  ]
}