{
  "path": "../bed1/16888637454881734216_1.png",
  "width": 300,
  "height": 600,
  "texts": [
    {
      "x": 27,
      "y": 266,
      "w": 241,
      "h": 44,
      "text": "歐美百大品牌",
      "score": 1.0
    },
    {
      "x": 65,
      "y": 313,
      "w": 204,
      "h": 32,
      "text": "紐約家具設計中心",
      "score": 0.83
    }
  ]
}