{
  "path": "../bed1/17564777946698152550_0.png",
  "width": 728,
  "height": 90,
  "texts": [
    {
      "x": 637,
      "y": 7,
      "w": 64,
      "h": 16,
      "text": "煮大刊 Carloffa",
      "score": 0.04
    },
    {
      "x": 413,
      "y": 17,
      "w": 14,
      "h": 14,
      "text": "up",
      "score": 0.75
    },
    {
      "x": 637,
      "y": 17,
      "w": 56,
      "h": 18,
      "text": "全真臣]旺位",
      "score": 0.06
    },
    {
      "x": 135,
      "y": 29,
      "w": 40,
      "h": 20,
      "text": "歐化",
      "score": 0.69
    },
    {
      "x": 637,
      "y": 29,
      "w": 60,
      "h": 18,
      "text": "竄玷舜鼐培化",
      "score": 0.0
    },
    {
      "x": 7,
      "y": 19,
      "w": 127,
      "h": 51,
      "text": "Ulfeils",
      "score": 0.53
    },
    {
      "x": 134,
      "y": 42,
      "w": 44,
      "h": 24,
      "text": "傢俬",
      "score": 0.93
    },
    {
      "x": 192,
      "y": 26,
      "w": 129,
      "h": 61,
      "text": "SALE",
      "score": 1.0
    },
    {
      "x": 409,
      "y": 25,
      "w": 84,
      "h": 42,
      "text": "50%",
      "score": 1.0
    },
    {
      "x": 637,
      "y": 43,
      "w": 40,
      "h": 16,
      "text": "5#15m",
      "score": 0.05
    },
    {
      "x": 475,
      "y": 61,
      "w": 16,
      "h": 16,
      "text": "oHf",
      "score": 0.16
    },
    {
      "x": 638,
      "y": 54,
      "w": 42,
      "h": 26,
      "text": "$20",
      "score": 1.0
    },
    {
      "x": 695,
      "y": 77,
      "w": 28,
      "h": 12,
      "text": "L#=1",
      "score": 0.0
    }
  ]
}