{
  "path": "../bed1/17564777946698152550_1.png",
  "width": 728,
  "height": 90,
  "texts": [
    {
      "x": 405,
      "y": 11,
      "w": 30,
      "h": 18,
      "text": "upfo",
      "score": 1.0
    },
    {
      "x": 637,
      "y": 7,
      "w": 64,
      "h": 16,
      "text": "煮大刊 Carloffa",
      "score": 0.04
    },
    {
      "x": 637,
      "y": 17,
      "w": 56,
      "h": 18,
      "text": "全真臣]旺位",
      "score": 0.06
    },
    {
      "x": 6,
      "y": 20,
      "w": 128,
      "h": 48,
      "text": "Ulfes|",
      "score": 0.84
    },
    {
      "x": 135,
      "y": 29,
      "w": 42,
      "h": 20,
      "text": "歐化",
      "score": 0.4
    },
    {
      "x": 398,
      "y": 20,
      "w": 108,
      "h": 54,
      "text": "50%",
      "score": 1.0
    },
    {
      "x": 637,
      "y": 29,
      "w": 60,
      "h": 30,
      "text": "竄玷舜鼐培化5#15m",
      "score": 0.05
    },
    {
      "x": 133,
      "y": 45,
      "w": 44,
      "h": 20,
      "text": "傢俬",
      "score": 0.45
    },
    {
      "x": 194,
      "y": 28,
      "w": 126,
      "h": 56,
      "text": "SALE",
      "score": 0.65
    },
    {
      "x": 638,
      "y": 52,
      "w": 62,
      "h": 28,
      "text": "$20,8",
      "score": 1.0
    },
    {
      "x": 483,
      "y": 65,
      "w": 18,
      "h": 20,
      "text": "off",
      "score": 0.2
    },
    {
      "x": 675,
      "y": 61,
      "w": 12,
      "h": 20,
      "text": "]",
      "score": 0.09
    },
    {
      "x": 695,
      "y": 77,
      "w": 28,
      "h": 12,
      "text": "L#=1",
      "score": 0.0
    }
  ]
}