{
  "path": "../bed1/18115314070391292120_2.png",
  "width": 300,
  "height": 600,
  "texts": [
    {
      "x": 126,
      "y": 22,
      "w": 56,
      "h": 64,
      "text": "同",
      "score": 0.93
    },
    {
      "x": 123,
      "y": 60,
      "w": 102,
      "h": 91,
      "text": "步W美",
      "score": 1.0
    },
    {
      "x": 123,
      "y": 131,
      "w": 64,
      "h": 68,
      "text": "價",
      "score": 0.99
    },
    {
      "x": 147,
      "y": 235,
      "w": 14,
      "h": 20,
      "text": "乙",
      "score": 0.25
    },
    {
      "x": 147,
      "y": 237,
      "w": 14,
      "h": 42,
      "text": "_",
      "score": 0.13
    },
    {
      "x": 147,
      "y": 285,
      "w": 16,
      "h": 20,
      "text": "三",
      "score": 0.61
    },
    {
      "x": 147,
      "y": 299,
      "w": 16,
      "h": 22,
      "text": "@",
      "score": 0.4
    },
    {
      "x": 147,
      "y": 315,
      "w": 16,
      "h": 36,
      "text": "g",
      "score": 0.01
    },
    {
      "x": 147,
      "y": 351,
      "w": 14,
      "h": 20,
      "text": "口",
      "score": 0.99
    },
    {
      "x": 147,
      "y": 353,
      "w": 16,
      "h": 40,
      "text": "8",
      "score": 0.21
    },
    {
      "x": 147,
      "y": 375,
      "w": 14,
      "h": 20,
      "text": "0",
      "score": 0.12
    },
    {
      "x": 147,
      "y": 391,
      "w": 14,
      "h": 20,
      "text": "旦",
      "score": 0.03
    },
    {
      "x": 147,
      "y": 403,
      "w": 14,
      "h": 22,
      "text": "2",
      "score": 0.94
    },
    {
      "x": 147,
      "y": 423,
      "w": 16,
      "h": 74,
      "text": "3",
      "score": 0.13
    },
    {
      "x": 102,
      "y": 568,
      "w": 104,
      "h": 24,
      "text": "拙約家貝設計中心",
      "score": 0.01
    }
  ]
}