{
  "path": "../bed1/2265128367170356240_0.png",
  "width": 970,
  "height": 250,
  "texts": [
    {
      "x": 177,
      "y": 23,
      "w": 24,
      "h": 20,
      "text": "化",
      "score": 0.99
    },
    {
      "x": 12,
      "y": 10,
      "w": 172,
      "h": 60,
      "text": "Ulferls像",
      "score": 0.6
    },
    {
      "x": 176,
      "y": 38,
      "w": 28,
      "h": 24,
      "text": "俬",
      "score": 0.98
    },
    {
      "x": 58,
      "y": 80,
      "w": 156,
      "h": 72,
      "text": "4(",
      "score": 0.04
    },
    {
      "x": 195,
      "y": 73,
      "w": 340,
      "h": 156,
      "text": "8-50%",
      "score": 0.15
    },
    {
      "x": 578,
      "y": 152,
      "w": 182,
      "h": 42,
      "text": "意大利 Yume全真皮3座位電動彈腳梳化",
      "score": 0.98
    },
    {
      "x": 577,
      "y": 193,
      "w": 64,
      "h": 20,
      "text": "545,600",
      "score": 0.51
    },
    {
      "x": 490,
      "y": 198,
      "w": 28,
      "h": 24,
      "text": "0f",
      "score": 0.3
    },
    {
      "x": 638,
      "y": 190,
      "w": 150,
      "h": 48,
      "text": "$22,800",
      "score": 0.65
    },
    {
      "x": 579,
      "y": 213,
      "w": 52,
      "h": 20,
      "text": "傻惠價",
      "score": 0.55
    },
    {
      "x": 923,
      "y": 229,
      "w": 36,
      "h": 14,
      "text": "5711!",
      "score": 0.01
    }
  ]
}