{
  "path": "../bed1/2558528986679061653.png",
  "width": 300,
  "height": 250,
  "texts": [
    {
      "x": 20,
      "y": 54,
      "w": 54,
      "h": 26,
      "text": "2019",
      "score": 0.57
    },
    {
      "x": 16,
      "y": 73,
      "w": 149,
      "h": 45,
      "text": "米蘭主題展",
      "score": 0.98
    },
    {
      "x": 49,
      "y": 108,
      "w": 115,
      "h": 28,
      "text": "即日起至10/13",
      "score": 0.97
    },
    {
      "x": 199,
      "y": 219,
      "w": 80,
      "h": 20,
      "text": "郵迎來參觀",
      "score": 0.03
    }
  ]
}