{
  "path": "../bed1/3222351955284147359_1.png",
  "width": 300,
  "height": 600,
  "texts": [
    {
      "x": 10,
      "y": 8,
      "w": 140,
      "h": 54,
      "text": "Ulfeiis|",
      "score": 0.55
    },
    {
      "x": 148,
      "y": 16,
      "w": 48,
      "h": 24,
      "text": "歐化",
      "score": 0.97
    },
    {
      "x": 151,
      "y": 35,
      "w": 46,
      "h": 20,
      "text": "傢俬",
      "score": 0.99
    },
    {
      "x": 71,
      "y": 115,
      "w": 164,
      "h": 88,
      "text": "全場",
      "score": 1.0
    },
    {
      "x": 72,
      "y": 202,
      "w": 158,
      "h": 32,
      "text": "陳列傢俬清貨",
      "score": 0.99
    },
    {
      "x": 12,
      "y": 342,
      "w": 252,
      "h": 130,
      "text": "2折5",
      "score": 1.0
    },
    {
      "x": 257,
      "y": 409,
      "w": 38,
      "h": 40,
      "text": "折",
      "score": 1.0
    },
    {
      "x": 135,
      "y": 469,
      "w": 110,
      "h": 131,
      "text": "4折",
      "score": 0.32
    },
    {
      "x": 188,
      "y": 544,
      "w": 50,
      "h": 54,
      "text": "折",
      "score": 1.0
    }
  ]
}