{
  "path": "../bed1/3544621349965532287_2.png",
  "width": 300,
  "height": 600,
  "texts": [
    {
      "x": 66,
      "y": 28,
      "w": 176,
      "h": 28,
      "text": "紐約家具設計中心",
      "score": 0.86
    },
    {
      "x": 260,
      "y": 28,
      "w": 32,
      "h": 52,
      "text": "滿",
      "score": 1.0
    },
    {
      "x": 257,
      "y": 27,
      "w": 38,
      "h": 104,
      "text": "額",
      "score": 0.1
    },
    {
      "x": 257,
      "y": 81,
      "w": 38,
      "h": 50,
      "text": "額",
      "score": 1.0
    },
    {
      "x": 32,
      "y": 162,
      "w": 50,
      "h": 26,
      "text": "30萬",
      "score": 0.99
    },
    {
      "x": 260,
      "y": 140,
      "w": 32,
      "h": 46,
      "text": "贈",
      "score": 1.0
    },
    {
      "x": 36,
      "y": 181,
      "w": 179,
      "h": 20,
      "text": "背田燒 白色絮奚16件脣具粗",
      "score": 0.01
    },
    {
      "x": 257,
      "y": 199,
      "w": 38,
      "h": 50,
      "text": "好",
      "score": 1.0
    },
    {
      "x": 32,
      "y": 264,
      "w": 50,
      "h": 26,
      "text": "20萬",
      "score": 1.0
    },
    {
      "x": 255,
      "y": 253,
      "w": 38,
      "h": 46,
      "text": "禮",
      "score": 1.0
    },
    {
      "x": 257,
      "y": 199,
      "w": 38,
      "h": 100,
      "text": "嫖",
      "score": 0.03
    },
    {
      "x": 34,
      "y": 284,
      "w": 148,
      "h": 24,
      "text": "醇品不誘鋼細口手沖壺",
      "score": 0.28
    },
    {
      "x": 32,
      "y": 358,
      "w": 48,
      "h": 28,
      "text": "10萬",
      "score": 0.99
    },
    {
      "x": 33,
      "y": 381,
      "w": 92,
      "h": 20,
      "text": "耐熱玻璃水缸",
      "score": 0.07
    },
    {
      "x": 34,
      "y": 450,
      "w": 34,
      "h": 24,
      "text": "5萬",
      "score": 1.0
    },
    {
      "x": 33,
      "y": 471,
      "w": 76,
      "h": 20,
      "text": "鍋賓冷水壺",
      "score": 0.53
    }
  ]
}