{
  "path": "../bed1/362042523823054939_1.png",
  "width": 300,
  "height": 250,
  "texts": [
    {
      "x": 93,
      "y": 7,
      "w": 130,
      "h": 20,
      "text": "紐約家具設計中心",
      "score": 0.52
    },
    {
      "x": 81,
      "y": 51,
      "w": 128,
      "h": 44,
      "text": "周年慶",
      "score": 0.87
    },
    {
      "x": 93,
      "y": 89,
      "w": 103,
      "h": 31,
      "text": "Anniversary",
      "score": 1.0
    },
    {
      "x": 107,
      "y": 113,
      "w": 76,
      "h": 38,
      "text": "5/23-8/4",
      "score": 0.6
    },
    {
      "x": 39,
      "y": 157,
      "w": 202,
      "h": 38,
      "text": "歐 美同 步 價",
      "score": 0.76
    }
  ]
}