{
  "path": "../bed1/4136913340984295098_1.png",
  "width": 728,
  "height": 90,
  "texts": [
    {
      "x": 25,
      "y": 1,
      "w": 124,
      "h": 20,
      "text": "紐絢家具設計中心",
      "score": 0.63
    },
    {
      "x": 17,
      "y": 17,
      "w": 96,
      "h": 40,
      "text": "周年慶",
      "score": 0.96
    },
    {
      "x": 214,
      "y": 16,
      "w": 300,
      "h": 56,
      "text": "歐 美 同 步 價",
      "score": 0.61
    },
    {
      "x": 11,
      "y": 49,
      "w": 99,
      "h": 27,
      "text": "Anniversary",
      "score": 0.7
    },
    {
      "x": 102,
      "y": 36,
      "w": 66,
      "h": 37,
      "text": "523-8+",
      "score": 0.37
    }
  ]
}