{
  "path": "../bed1/4391401401574396720_1.png",
  "width": 728,
  "height": 90,
  "texts": [
    {
      "x": 341,
      "y": 9,
      "w": 24,
      "h": 18,
      "text": "在衣",
      "score": 0.18
    },
    {
      "x": 375,
      "y": 9,
      "w": 60,
      "h": 20,
      "text": "靡坐得軒服",
      "score": 0.04
    },
    {
      "x": 8,
      "y": 20,
      "w": 128,
      "h": 50,
      "text": "Ulfeils",
      "score": 0.35
    },
    {
      "x": 137,
      "y": 31,
      "w": 40,
      "h": 20,
      "text": "歇化",
      "score": 0.06
    },
    {
      "x": 196,
      "y": 8,
      "w": 162,
      "h": 50,
      "text": "Stt",
      "score": 0.78
    },
    {
      "x": 544,
      "y": 32,
      "w": 170,
      "h": 28,
      "text": "大量歐洲現貨發售",
      "score": 0.99
    },
    {
      "x": 133,
      "y": 45,
      "w": 44,
      "h": 20,
      "text": "傢俬",
      "score": 0.88
    },
    {
      "x": 350,
      "y": 26,
      "w": 64,
      "h": 56,
      "text": "60",
      "score": 1.0
    },
    {
      "x": 283,
      "y": 61,
      "w": 14,
      "h": 16,
      "text": "一",
      "score": 0.01
    },
    {
      "x": 310,
      "y": 54,
      "w": 38,
      "h": 26,
      "text": "葉+",
      "score": 0.04
    }
  ]
}