{
  "path": "../bed1/4501895460462488655_0.png",
  "width": 320,
  "height": 100,
  "texts": [
    {
      "x": 5,
      "y": 3,
      "w": 99,
      "h": 30,
      "text": "Ulfeils",
      "score": 0.82
    },
    {
      "x": 10,
      "y": 29,
      "w": 176,
      "h": 37,
      "text": "里 想飛[化T儡左你a且t 土滴瓦",
      "score": 0.0
    },
    {
      "x": 8,
      "y": 68,
      "w": 180,
      "h": 28,
      "text": "|6折 + HK$2 =; 1",
      "score": 0.08
    }
  ]
}