{
  "path": "../bed1/4530022979118530081.png",
  "width": 728,
  "height": 90,
  "texts": [
    {
      "x": 37,
      "y": 7,
      "w": 102,
      "h": 20,
      "text": "日月光已;冢濉",
      "score": 0.0
    },
    {
      "x": 31,
      "y": 25,
      "w": 202,
      "h": 42,
      "text": "輕裝潢夯設計",
      "score": 0.91
    },
    {
      "x": 116,
      "y": 62,
      "w": 210,
      "h": 24,
      "text": "小狌也能挽有蘿想家居",
      "score": 0.05
    }
  ]
}