{
  "path": "../bed1/492069366434907565_2.png",
  "width": 300,
  "height": 50,
  "texts": [
    {
      "x": 1,
      "y": 0,
      "w": 74,
      "h": 19,
      "text": "黨 紐絢家具",
      "score": 0.01
    },
    {
      "x": 0,
      "y": 22,
      "w": 84,
      "h": 24,
      "text": "周年慶;-o4",
      "score": 0.11
    }
  ]
}