{
  "path": "../bed1/5088020244947262676_1.png",
  "width": 250,
  "height": 250,
  "texts": [
    {
      "x": 179,
      "y": 5,
      "w": 64,
      "h": 20,
      "text": "紐絢家具",
      "score": 0.92
    },
    {
      "x": 0,
      "y": 18,
      "w": 118,
      "h": 48,
      "text": "年終慶",
      "score": 0.99
    },
    {
      "x": 162,
      "y": 42,
      "w": 82,
      "h": 24,
      "text": "抽獎活動",
      "score": 0.97
    },
    {
      "x": 163,
      "y": 63,
      "w": 80,
      "h": 20,
      "text": "10.10~01.05",
      "score": 1.0
    },
    {
      "x": 8,
      "y": 68,
      "w": 102,
      "h": 30,
      "text": "聖誕加碼",
      "score": 1.0
    },
    {
      "x": 9,
      "y": 92,
      "w": 97,
      "h": 20,
      "text": "期問限定開跑",
      "score": 0.88
    }
  ]
}