{
  "path": "../bed1/5386688174721738465_2.png",
  "width": 250,
  "height": 250,
  "texts": [
    {
      "x": 89,
      "y": 29,
      "w": 18,
      "h": 18,
      "text": "頭",
      "score": 0.22
    },
    {
      "x": 222,
      "y": 22,
      "w": 24,
      "h": 30,
      "text": "粉",
      "score": 1.0
    },
    {
      "x": 222,
      "y": 56,
      "w": 28,
      "h": 32,
      "text": "絲",
      "score": 1.0
    },
    {
      "x": 222,
      "y": 92,
      "w": 28,
      "h": 34,
      "text": "抽",
      "score": 1.0
    },
    {
      "x": 11,
      "y": 113,
      "w": 48,
      "h": 20,
      "text": "茸華 AB",
      "score": 0.19
    },
    {
      "x": 11,
      "y": 127,
      "w": 82,
      "h": 20,
      "text": "Crunch健腹鑑",
      "score": 0.12
    },
    {
      "x": 151,
      "y": 125,
      "w": 54,
      "h": 20,
      "text": ")菜mini",
      "score": 0.05
    },
    {
      "x": 149,
      "y": 139,
      "w": 66,
      "h": 20,
      "text": "魔法淮脂荒",
      "score": 0.08
    },
    {
      "x": 220,
      "y": 128,
      "w": 30,
      "h": 32,
      "text": "好",
      "score": 1.0
    },
    {
      "x": 75,
      "y": 151,
      "w": 66,
      "h": 20,
      "text": "輝莘可拈式",
      "score": 0.33
    },
    {
      "x": 75,
      "y": 167,
      "w": 78,
      "h": 20,
      "text": "遠紅外光波房",
      "score": 0.43
    },
    {
      "x": 222,
      "y": 164,
      "w": 28,
      "h": 32,
      "text": "禮",
      "score": 1.0
    },
    {
      "x": 12,
      "y": 180,
      "w": 40,
      "h": 26,
      "text": "活動",
      "score": 1.0
    },
    {
      "x": 19,
      "y": 231,
      "w": 22,
      "h": 16,
      "text": "丑齣",
      "score": 0.0
    }
  ]
}