{
  "path": "../bed1/5667045790367613517_0.png",
  "width": 160,
  "height": 600,
  "texts": [
    {
      "x": 4,
      "y": 288,
      "w": 156,
      "h": 30,
      "text": "歐美百大品牌",
      "score": 0.97
    },
    {
      "x": 28,
      "y": 314,
      "w": 128,
      "h": 24,
      "text": "紐絢家具設針中心",
      "score": 0.06
    }
  ]
}