{
  "path": "../bed1/6791606150994998505_2.png",
  "width": 336,
  "height": 280,
  "texts": [
    {
      "x": 88,
      "y": 20,
      "w": 162,
      "h": 26,
      "text": "紐約家具設計中心",
      "score": 0.99
    },
    {
      "x": 303,
      "y": 31,
      "w": 14,
      "h": 38,
      "text": "",
      "score": 0.0
    },
    {
      "x": 67,
      "y": 61,
      "w": 168,
      "h": 68,
      "text": "周年慶",
      "score": 0.94
    },
    {
      "x": 303,
      "y": 71,
      "w": 14,
      "h": 62,
      "text": "",
      "score": 0.0
    },
    {
      "x": 64,
      "y": 121,
      "w": 193,
      "h": 38,
      "text": "Anniversary 5/23-8/4",
      "score": 0.57
    },
    {
      "x": 49,
      "y": 158,
      "w": 211,
      "h": 44,
      "text": "歐美同步價",
      "score": 0.98
    },
    {
      "x": 303,
      "y": 133,
      "w": 14,
      "h": 64,
      "text": "",
      "score": 0.0
    },
    {
      "x": 303,
      "y": 197,
      "w": 14,
      "h": 66,
      "text": "",
      "score": 0.0
    }
  ]
}