{
  "path": "../bed1/694100399461751796_2.png",
  "width": 160,
  "height": 600,
  "texts": [
    {
      "x": 44,
      "y": 34,
      "w": 88,
      "h": 26,
      "text": "紐約家具",
      "score": 0.98
    },
    {
      "x": 14,
      "y": 76,
      "w": 114,
      "h": 48,
      "text": "周年慶",
      "score": 0.95
    },
    {
      "x": 17,
      "y": 118,
      "w": 109,
      "h": 30,
      "text": "Anniversary",
      "score": 1.0
    },
    {
      "x": 23,
      "y": 140,
      "w": 95,
      "h": 48,
      "text": "5/23-8/4",
      "score": 0.82
    },
    {
      "x": 13,
      "y": 249,
      "w": 36,
      "h": 20,
      "text": "30#",
      "score": 0.25
    },
    {
      "x": 14,
      "y": 262,
      "w": 90,
      "h": 24,
      "text": "青田燒件%貝閹",
      "score": 0.0
    },
    {
      "x": 10,
      "y": 322,
      "w": 40,
      "h": 24,
      "text": "20苗",
      "score": 0.19
    },
    {
      "x": 13,
      "y": 339,
      "w": 78,
      "h": 20,
      "text": "希品柵口手沖壺",
      "score": 0.0
    },
    {
      "x": 13,
      "y": 409,
      "w": 38,
      "h": 20,
      "text": "10茁",
      "score": 0.92
    },
    {
      "x": 137,
      "y": 413,
      "w": 12,
      "h": 18,
      "text": "5",
      "score": 0.16
    },
    {
      "x": 15,
      "y": 423,
      "w": 68,
      "h": 20,
      "text": "耐然皈巧水)",
      "score": 0.0
    },
    {
      "x": 137,
      "y": 427,
      "w": 12,
      "h": 28,
      "text": "三",
      "score": 0.12
    },
    {
      "x": 15,
      "y": 455,
      "w": 24,
      "h": 20,
      "text": "5茁",
      "score": 0.6
    },
    {
      "x": 137,
      "y": 453,
      "w": 14,
      "h": 18,
      "text": "=",
      "score": 0.53
    },
    {
      "x": 15,
      "y": 467,
      "w": 56,
      "h": 20,
      "text": "鍋宜吊水",
      "score": 0.05
    },
    {
      "x": 137,
      "y": 463,
      "w": 14,
      "h": 20,
      "text": "E",
      "score": 0.12
    },
    {
      "x": 138,
      "y": 484,
      "w": 8,
      "h": 18,
      "text": "",
      "score": 0.0
    },
    {
      "x": 137,
      "y": 505,
      "w": 12,
      "h": 20,
      "text": "f",
      "score": 0.01
    }
  ]
}