{
  "path": "../bed1/711335701722476801_0.png",
  "width": 120,
  "height": 600,
  "texts": [
    {
      "x": 3,
      "y": 19,
      "w": 114,
      "h": 36,
      "text": "Ulfeils|豔",
      "score": 0.22
    },
    {
      "x": 14,
      "y": 267,
      "w": 89,
      "h": 24,
      "text": "Ghatmuax",
      "score": 0.35
    },
    {
      "x": 0,
      "y": 286,
      "w": 120,
      "h": 56,
      "text": "SALE",
      "score": 0.99
    },
    {
      "x": 19,
      "y": 345,
      "w": 30,
      "h": 16,
      "text": "up to",
      "score": 0.72
    },
    {
      "x": 15,
      "y": 353,
      "w": 90,
      "h": 44,
      "text": "50%",
      "score": 1.0
    },
    {
      "x": 85,
      "y": 391,
      "w": 16,
      "h": 18,
      "text": "o#f",
      "score": 0.34
    },
    {
      "x": 13,
      "y": 497,
      "w": 72,
      "h": 18,
      "text": "意大利 Cameli",
      "score": 0.82
    },
    {
      "x": 13,
      "y": 509,
      "w": 62,
      "h": 20,
      "text": "全百庋3座位",
      "score": 0.14
    },
    {
      "x": 13,
      "y": 523,
      "w": 66,
      "h": 20,
      "text": "毛3羿科梳化",
      "score": 0.0
    },
    {
      "x": 9,
      "y": 535,
      "w": 87,
      "h": 24,
      "text": "5f601優忠償",
      "score": 0.02
    },
    {
      "x": 8,
      "y": 548,
      "w": 105,
      "h": 38,
      "text": "$20,800",
      "score": 1.0
    }
  ]
}