{
  "path": "../bed1/7396736149982648304_0.png",
  "width": 728,
  "height": 90,
  "texts": [
    {
      "x": 335,
      "y": 11,
      "w": 80,
      "h": 20,
      "text": "歐化傢俬為你",
      "score": 0.83
    },
    {
      "x": 140,
      "y": 28,
      "w": 42,
      "h": 24,
      "text": "歐化",
      "score": 0.89
    },
    {
      "x": 199,
      "y": 5,
      "w": 223,
      "h": 45,
      "text": "里`想飛眯里數 出海玩",
      "score": 0.33
    },
    {
      "x": 14,
      "y": 20,
      "w": 126,
      "h": 50,
      "text": "Ulfeifs",
      "score": 0.56
    },
    {
      "x": 138,
      "y": 42,
      "w": 46,
      "h": 24,
      "text": "傢俬",
      "score": 0.6
    },
    {
      "x": 195,
      "y": 47,
      "w": 213,
      "h": 37,
      "text": "糕6折+ HKS2 =A1",
      "score": 0.71
    }
  ]
}