{
  "path": "../bed1/8009525216816168981.png",
  "width": 970,
  "height": 250,
  "texts": [
    {
      "x": 328,
      "y": 6,
      "w": 306,
      "h": 30,
      "text": "FB網路抽獎活動 10.10-01.05",
      "score": 0.73
    },
    {
      "x": 774,
      "y": 8,
      "w": 188,
      "h": 30,
      "text": "紐約家具設計中心",
      "score": 0.87
    },
    {
      "x": 33,
      "y": 11,
      "w": 214,
      "h": 84,
      "text": "年終慶",
      "score": 1.0
    },
    {
      "x": 55,
      "y": 97,
      "w": 167,
      "h": 50,
      "text": "感恩回饋",
      "score": 0.8
    },
    {
      "x": 56,
      "y": 142,
      "w": 166,
      "h": 32,
      "text": "換家具過新年",
      "score": 1.0
    }
  ]
}