{
  "path": "../bed1/8047557558923781287_2.png",
  "width": 468,
  "height": 60,
  "texts": [
    {
      "x": 2,
      "y": 2,
      "w": 129,
      "h": 53,
      "text": "歐美同步",
      "score": 0.59
    },
    {
      "x": 229,
      "y": 21,
      "w": 164,
      "h": 20,
      "text": "WORLD DESIGN CENTE",
      "score": 0.98
    }
  ]
}