{
  "path": "../bed1/8093641967514883658_0.png",
  "width": 300,
  "height": 50,
  "texts": [
    {
      "x": 211,
      "y": 9,
      "w": 82,
      "h": 20,
      "text": "d齣不月&計中心",
      "score": 0.0
    },
    {
      "x": 172,
      "y": 30,
      "w": 128,
      "h": 20,
      "text": "洲最瓜居嘗闢$中",
      "score": 0.0
    }
  ]
}