{
  "path": "../bed1/8353222426293510007_0.png",
  "width": 300,
  "height": 250,
  "texts": [
    {
      "x": 12,
      "y": 12,
      "w": 120,
      "h": 32,
      "text": "Ulfeils|酉",
      "score": 0.04
    },
    {
      "x": 54,
      "y": 50,
      "w": 84,
      "h": 24,
      "text": "Ghristmud&",
      "score": 0.35
    },
    {
      "x": 34,
      "y": 68,
      "w": 128,
      "h": 56,
      "text": "SALE",
      "score": 0.54
    },
    {
      "x": 65,
      "y": 121,
      "w": 84,
      "h": 36,
      "text": "50%0df",
      "score": 1.0
    },
    {
      "x": 169,
      "y": 179,
      "w": 64,
      "h": 16,
      "text": "硼大利 Carotta",
      "score": 0.07
    },
    {
      "x": 169,
      "y": 189,
      "w": 110,
      "h": 18,
      "text": "全貞庋3庄位韭蛐8圈檀化",
      "score": 0.0
    },
    {
      "x": 169,
      "y": 203,
      "w": 72,
      "h": 18,
      "text": "34ito 促虫佰",
      "score": 0.01
    },
    {
      "x": 166,
      "y": 212,
      "w": 90,
      "h": 28,
      "text": "$20,800",
      "score": 1.0
    }
  ]
}