{
  "path": "../bed1/8471357804097045250_0.png",
  "width": 320,
  "height": 100,
  "texts": [
    {
      "x": 4,
      "y": 4,
      "w": 58,
      "h": 24,
      "text": "Ulieiis",
      "score": 0.29
    },
    {
      "x": 34,
      "y": 28,
      "w": 80,
      "h": 32,
      "text": "FINAL",
      "score": 0.93
    },
    {
      "x": 207,
      "y": 49,
      "w": 46,
      "h": 16,
      "text": "蕙士利 Mire",
      "score": 0.02
    },
    {
      "x": 207,
      "y": 59,
      "w": 96,
      "h": 14,
      "text": "侶=庄!由廿1忙|罕+=",
      "score": 0.0
    },
    {
      "x": 33,
      "y": 53,
      "w": 152,
      "h": 44,
      "text": "SALE60%",
      "score": 0.96
    },
    {
      "x": 207,
      "y": 69,
      "w": 30,
      "h": 14,
      "text": "515,501",
      "score": 0.17
    },
    {
      "x": 238,
      "y": 70,
      "w": 68,
      "h": 24,
      "text": "$16,800",
      "score": 1.0
    },
    {
      "x": 207,
      "y": 79,
      "w": 32,
      "h": 14,
      "text": "臣由面:",
      "score": 0.01
    }
  ]
}