{
  "path": "../bed1/8709491206253564636_1.png",
  "width": 300,
  "height": 250,
  "texts": [
    {
      "x": 10,
      "y": 9,
      "w": 130,
      "h": 40,
      "text": "Ulfeils|愍倦愆",
      "score": 0.47
    },
    {
      "x": 13,
      "y": 49,
      "w": 133,
      "h": 43,
      "text": "里.想飛",
      "score": 0.51
    },
    {
      "x": 13,
      "y": 87,
      "w": 130,
      "h": 18,
      "text": "氏化倍伊肖你 脈旦! 舌世界",
      "score": 0.0
    },
    {
      "x": 24,
      "y": 108,
      "w": 94,
      "h": 24,
      "text": "精選傢俬6折",
      "score": 0.85
    },
    {
      "x": 23,
      "y": 128,
      "w": 111,
      "h": 28,
      "text": "HK$2 = A1",
      "score": 0.42
    }
  ]
}