{
  "path": "../bed1/8884459370357749129_1.png",
  "width": 320,
  "height": 100,
  "texts": [
    {
      "x": 6,
      "y": 32,
      "w": 282,
      "h": 36,
      "text": "周年慶 歐美同步價",
      "score": 0.9
    },
    {
      "x": 14,
      "y": 58,
      "w": 65,
      "h": 21,
      "text": "Anniversary",
      "score": 0.5
    },
    {
      "x": 21,
      "y": 72,
      "w": 51,
      "h": 24,
      "text": "5/23-8|/4",
      "score": 0.16
    }
  ]
}