{
  "path": "../bed1/8985351268591055835_1.png",
  "width": 320,
  "height": 100,
  "texts": [
    {
      "x": 6,
      "y": 6,
      "w": 60,
      "h": 24,
      "text": "Ulfeis|",
      "score": 0.55
    },
    {
      "x": 98,
      "y": 6,
      "w": 96,
      "h": 30,
      "text": "Suumumo",
      "score": 0.56
    },
    {
      "x": 0,
      "y": 28,
      "w": 202,
      "h": 72,
      "text": "50off SLE",
      "score": 0.1
    },
    {
      "x": 253,
      "y": 67,
      "w": 54,
      "h": 14,
      "text": "Trsi +h伯",
      "score": 0.0
    },
    {
      "x": 245,
      "y": 77,
      "w": 70,
      "h": 20,
      "text": "$13,800",
      "score": 0.97
    }
  ]
}