{
  "path": "../bed1/9015781759251133033_1.png",
  "width": 300,
  "height": 50,
  "texts": [
    {
      "x": 1,
      "y": 0,
      "w": 74,
      "h": 19,
      "text": "a 紐絢家具",
      "score": 0.02
    },
    {
      "x": 89,
      "y": 8,
      "w": 125,
      "h": 31,
      "text": "歐美同步價",
      "score": 0.97
    },
    {
      "x": 0,
      "y": 22,
      "w": 86,
      "h": 24,
      "text": "周年|;a-ol4",
      "score": 0.06
    }
  ]
}