{
  "path": "../bed1/9201276661038005105_0.png",
  "width": 970,
  "height": 250,
  "texts": [
    {
      "x": 73,
      "y": 27,
      "w": 212,
      "h": 36,
      "text": "紐約家具設計中心",
      "score": 0.98
    },
    {
      "x": 43,
      "y": 66,
      "w": 225,
      "h": 78,
      "text": "周 年慶",
      "score": 0.74
    },
    {
      "x": 300,
      "y": 94,
      "w": 454,
      "h": 76,
      "text": "歐 美同 步 價",
      "score": 0.58
    },
    {
      "x": 72,
      "y": 132,
      "w": 167,
      "h": 51,
      "text": "Anniversary",
      "score": 1.0
    },
    {
      "x": 98,
      "y": 170,
      "w": 112,
      "h": 54,
      "text": "523-8/4",
      "score": 0.47
    }
  ]
}