{
  "path": "../bed1/9240008412319125385_0.png",
  "width": 120,
  "height": 600,
  "texts": [
    {
      "x": 3,
      "y": 63,
      "w": 104,
      "h": 42,
      "text": "周年慶",
      "score": 0.95
    },
    {
      "x": 3,
      "y": 102,
      "w": 101,
      "h": 28,
      "text": "Anniversary",
      "score": 0.89
    },
    {
      "x": 17,
      "y": 125,
      "w": 78,
      "h": 36,
      "text": "523-8/4",
      "score": 0.89
    },
    {
      "x": 30,
      "y": 182,
      "w": 52,
      "h": 58,
      "text": "歐",
      "score": 1.0
    },
    {
      "x": 28,
      "y": 234,
      "w": 54,
      "h": 64,
      "text": "美",
      "score": 1.0
    },
    {
      "x": 28,
      "y": 290,
      "w": 52,
      "h": 62,
      "text": "同",
      "score": 0.99
    },
    {
      "x": 28,
      "y": 346,
      "w": 54,
      "h": 60,
      "text": "步",
      "score": 1.0
    },
    {
      "x": 28,
      "y": 398,
      "w": 54,
      "h": 60,
      "text": "價",
      "score": 0.98
    },
    {
      "x": 107,
      "y": 405,
      "w": 12,
      "h": 48,
      "text": "",
      "score": 0.0
    },
    {
      "x": 107,
      "y": 405,
      "w": 12,
      "h": 96,
      "text": "",
      "score": 0.0
    },
    {
      "x": 108,
      "y": 500,
      "w": 6,
      "h": 18,
      "text": "",
      "score": 0.0
    }
  ]
}