{
  "path": "../bed1/10368258948781078376_0.png",
  "width": 300,
  "height": 50,
  "texts": [
    {
      "x": 59,
      "y": 7,
      "w": 126,
      "h": 36,
      "text": "CAUDALIE",
      "score": 0.83
    }
  ]
}