{
  "path": "../bed1/10368258948781078376_1.png",
  "width": 300,
  "height": 50,
  "texts": [
    {
      "x": 105,
      "y": 5,
      "w": 34,
      "h": 18,
      "text": "新豈坏",
      "score": 0.01
    },
    {
      "x": 30,
      "y": 22,
      "w": 180,
      "h": 24,
      "text": "葡萄蔓極緻完美凝白晚霜",
      "score": 0.3
    }
  ]
}