{
  "path": "../bed1/10475390587880769287_4.png",
  "width": 320,
  "height": 100,
  "texts": [
    {
      "x": 52,
      "y": 22,
      "w": 219,
      "h": 60,
      "text": "CAUDALIE",
      "score": 0.64
    }
  ]
}