{
  "path": "../bed1/10992966725557355958_0.png",
  "width": 970,
  "height": 250,
  "texts": [
    {
      "x": 20,
      "y": 14,
      "w": 191,
      "h": 37,
      "text": "露姬婷 ROSETTE",
      "score": 1.0
    },
    {
      "x": 244,
      "y": 28,
      "w": 322,
      "h": 98,
      "text": "粉刺淨斷!!",
      "score": 0.56
    },
    {
      "x": 315,
      "y": 123,
      "w": 250,
      "h": 38,
      "text": "毛孔細小滑嫩的秘密",
      "score": 0.69
    },
    {
      "x": 809,
      "y": 189,
      "w": 16,
      "h": 18,
      "text": "一",
      "score": 0.01
    },
    {
      "x": 821,
      "y": 209,
      "w": 18,
      "h": 16,
      "text": "6",
      "score": 0.07
    },
    {
      "x": 286,
      "y": 216,
      "w": 190,
      "h": 28,
      "text": "海泥毛孔潔淨洗顏乳",
      "score": 0.65
    }
  ]
}