{
  "path": "../bed1/11050866061314656988_0.png",
  "width": 250,
  "height": 250,
  "texts": [
    {
      "x": 11,
      "y": 11,
      "w": 118,
      "h": 20,
      "text": "路姬婷 ROSETTE",
      "score": 0.24
    },
    {
      "x": 6,
      "y": 46,
      "w": 145,
      "h": 53,
      "text": "粉剌淨斷!!",
      "score": 1.0
    },
    {
      "x": 177,
      "y": 69,
      "w": 32,
      "h": 20,
      "text": "口3",
      "score": 0.93
    },
    {
      "x": 26,
      "y": 100,
      "w": 112,
      "h": 24,
      "text": "毛孔細小滑嫩",
      "score": 0.65
    },
    {
      "x": 57,
      "y": 121,
      "w": 48,
      "h": 20,
      "text": "的秘巒",
      "score": 0.25
    },
    {
      "x": 176,
      "y": 166,
      "w": 24,
      "h": 24,
      "text": "了",
      "score": 0.06
    },
    {
      "x": 147,
      "y": 223,
      "w": 90,
      "h": 18,
      "text": "沮泥L几*跣u扎",
      "score": 0.0
    }
  ]
}