{
  "path": "../bed1/11388859715266664892_2.png",
  "width": 300,
  "height": 250,
  "texts": [
    {
      "x": 87,
      "y": 11,
      "w": 126,
      "h": 38,
      "text": "CAUDALIE",
      "score": 0.83
    },
    {
      "x": 41,
      "y": 51,
      "w": 215,
      "h": 40,
      "text": "崇光感謝周年慶",
      "score": 0.99
    },
    {
      "x": 106,
      "y": 214,
      "w": 86,
      "h": 26,
      "text": "預覽優惠",
      "score": 0.98
    }
  ]
}