{
  "path": "../bed1/11714064864907290295_7.png",
  "width": 250,
  "height": 250,
  "texts": [
    {
      "x": 45,
      "y": 13,
      "w": 160,
      "h": 44,
      "text": "CAUDALIE",
      "score": 0.61
    },
    {
      "x": 52,
      "y": 88,
      "w": 148,
      "h": 30,
      "text": "每售出1套套裝",
      "score": 0.99
    },
    {
      "x": 88,
      "y": 120,
      "w": 72,
      "h": 28,
      "text": "我們會",
      "score": 1.0
    },
    {
      "x": 41,
      "y": 151,
      "w": 168,
      "h": 38,
      "text": "種植1棵樹木",
      "score": 1.0
    },
    {
      "x": 44,
      "y": 204,
      "w": 164,
      "h": 24,
      "text": "馬上選購 免費迭貨=",
      "score": 0.89
    }
  ]
}