{
  "path": "../bed1/11746060980925784042_0.png",
  "width": 728,
  "height": 90,
  "texts": [
    {
      "x": 539,
      "y": 13,
      "w": 114,
      "h": 36,
      "text": "馬上選購",
      "score": 1.0
    },
    {
      "x": 34,
      "y": 20,
      "w": 178,
      "h": 48,
      "text": "CAUDALIE",
      "score": 0.71
    },
    {
      "x": 255,
      "y": 19,
      "w": 246,
      "h": 54,
      "text": "新年限定套裝",
      "score": 1.0
    },
    {
      "x": 535,
      "y": 45,
      "w": 118,
      "h": 36,
      "text": "免費送貨",
      "score": 0.99
    }
  ]
}