{
  "path": "../bed1/12767546050198855366_2.png",
  "width": 320,
  "height": 100,
  "texts": [
    {
      "x": 45,
      "y": 21,
      "w": 150,
      "h": 20,
      "text": "葡萄莖極緻完美精華液",
      "score": 0.04
    },
    {
      "x": 237,
      "y": 37,
      "w": 18,
      "h": 12,
      "text": "(Lo",
      "score": 0.3
    },
    {
      "x": 40,
      "y": 37,
      "w": 159,
      "h": 36,
      "text": "98%天然配方",
      "score": 1.0
    }
  ]
}