{
  "path": "../bed1/12767546050198855366_0.png",
  "width": 320,
  "height": 100,
  "texts": [
    {
      "x": 31,
      "y": 19,
      "w": 179,
      "h": 51,
      "text": "CAUDALIE",
      "score": 0.63
    },
    {
      "x": 237,
      "y": 37,
      "w": 18,
      "h": 12,
      "text": "(Lo",
      "score": 0.3
    }
  ]
}