{
  "path": "../bed1/1368309522711979417.png",
  "width": 320,
  "height": 100,
  "texts": [
    {
      "x": 3,
      "y": 5,
      "w": 18,
      "h": 12,
      "text": "回4",
      "score": 0.53
    },
    {
      "x": 19,
      "y": 24,
      "w": 55,
      "h": 26,
      "text": "踞姬婷",
      "score": 0.05
    },
    {
      "x": 25,
      "y": 49,
      "w": 42,
      "h": 14,
      "text": "Ju",
      "score": 0.0
    },
    {
      "x": 4,
      "y": 74,
      "w": 234,
      "h": 24,
      "text": "全列商品 特價149元 任選2件",
      "score": 0.24
    }
  ]
}