{
  "path": "../bed1/13720526576725987231_0.png",
  "width": 300,
  "height": 600,
  "texts": [
    {
      "x": 78,
      "y": 22,
      "w": 147,
      "h": 42,
      "text": "CAUDALIE",
      "score": 0.59
    },
    {
      "x": 45,
      "y": 76,
      "w": 211,
      "h": 44,
      "text": "葡萄美白62倍",
      "score": 0.97
    },
    {
      "x": 65,
      "y": 119,
      "w": 166,
      "h": 36,
      "text": "突破維C效能*",
      "score": 0.99
    },
    {
      "x": 63,
      "y": 156,
      "w": 173,
      "h": 20,
      "text": "*抗酩氨酸蔽的皚外測試結果",
      "score": 0.01
    },
    {
      "x": 108,
      "y": 354,
      "w": 82,
      "h": 26,
      "text": "CAUDALIE",
      "score": 0.6
    },
    {
      "x": 131,
      "y": 393,
      "w": 56,
      "h": 16,
      "text": "MNOPERFEci",
      "score": 0.07
    },
    {
      "x": 145,
      "y": 411,
      "w": 22,
      "h": 12,
      "text": "511",
      "score": 0.42
    },
    {
      "x": 133,
      "y": 431,
      "w": 32,
      "h": 12,
      "text": "FiCi1",
      "score": 0.01
    },
    {
      "x": 129,
      "y": 437,
      "w": 34,
      "h": 14,
      "text": "Liadd",
      "score": 0.01
    },
    {
      "x": 112,
      "y": 550,
      "w": 78,
      "h": 24,
      "text": "了解更多",
      "score": 0.96
    }
  ]
}