{
  "path": "../bed1/1379814455810519185_3.png",
  "width": 300,
  "height": 600,
  "texts": [
    {
      "x": 62,
      "y": 12,
      "w": 176,
      "h": 48,
      "text": "CAUDALIE",
      "score": 0.7
    },
    {
      "x": 64,
      "y": 101,
      "w": 169,
      "h": 44,
      "text": "3.3倍自我抗皺`",
      "score": 0.99
    },
    {
      "x": 107,
      "y": 142,
      "w": 86,
      "h": 18,
      "text": "*科學僂器測斌鮚果",
      "score": 0.0
    },
    {
      "x": 206,
      "y": 264,
      "w": 36,
      "h": 24,
      "text": "獨家",
      "score": 0.97
    },
    {
      "x": 225,
      "y": 285,
      "w": 18,
      "h": 18,
      "text": "利",
      "score": 1.0
    },
    {
      "x": 106,
      "y": 320,
      "w": 88,
      "h": 30,
      "text": "CAUDAuif",
      "score": 0.43
    },
    {
      "x": 111,
      "y": 363,
      "w": 78,
      "h": 16,
      "text": "FS/ERATROL lun]",
      "score": 0.12
    },
    {
      "x": 135,
      "y": 389,
      "w": 52,
      "h": 12,
      "text": "Stmt ftroe",
      "score": 0.0
    },
    {
      "x": 137,
      "y": 401,
      "w": 30,
      "h": 14,
      "text": "nioid",
      "score": 0.05
    },
    {
      "x": 82,
      "y": 526,
      "w": 134,
      "h": 26,
      "text": "網店獨家優惠>",
      "score": 0.35
    }
  ]
}