{
  "path": "../bed1/14041576151405803550_0.png",
  "width": 120,
  "height": 600,
  "texts": [
    {
      "x": 15,
      "y": 17,
      "w": 90,
      "h": 20,
      "text": "煞姬婷 ROSEfTE",
      "score": 0.01
    },
    {
      "x": 10,
      "y": 58,
      "w": 85,
      "h": 48,
      "text": "粉刺",
      "score": 0.86
    },
    {
      "x": 13,
      "y": 121,
      "w": 92,
      "h": 40,
      "text": "淨斷!0",
      "score": 1.0
    },
    {
      "x": 10,
      "y": 182,
      "w": 100,
      "h": 24,
      "text": "毛孔細小n嫩",
      "score": 0.29
    },
    {
      "x": 35,
      "y": 203,
      "w": 50,
      "h": 20,
      "text": "的杜密",
      "score": 0.04
    },
    {
      "x": 9,
      "y": 247,
      "w": 104,
      "h": 20,
      "text": "潤泥色孔澀訂冼瀨乳",
      "score": 0.0
    }
  ]
}