{
  "path": "../bed1/14165186433692309145.png",
  "width": 300,
  "height": 250,
  "texts": [
    {
      "x": 48,
      "y": 5,
      "w": 230,
      "h": 31,
      "text": "PChome24h購物快速出貨",
      "score": 0.99
    },
    {
      "x": 94,
      "y": 46,
      "w": 196,
      "h": 32,
      "text": "暢通肌膚吸收之路",
      "score": 0.99
    },
    {
      "x": 12,
      "y": 70,
      "w": 72,
      "h": 24,
      "text": "MINON",
      "score": 0.6
    },
    {
      "x": 15,
      "y": 89,
      "w": 70,
      "h": 18,
      "text": "atino loist",
      "score": 0.18
    },
    {
      "x": 107,
      "y": 76,
      "w": 177,
      "h": 29,
      "text": "N敏弱潤澤酵素洗顏粉/",
      "score": 0.47
    },
    {
      "x": 165,
      "y": 119,
      "w": 36,
      "h": 20,
      "text": "再送",
      "score": 0.46
    },
    {
      "x": 66,
      "y": 120,
      "w": 72,
      "h": 32,
      "text": "I下殺|",
      "score": 0.39
    },
    {
      "x": 215,
      "y": 139,
      "w": 34,
      "h": 20,
      "text": "oiwow",
      "score": 0.02
    },
    {
      "x": 263,
      "y": 141,
      "w": 18,
      "h": 20,
      "text": "湍",
      "score": 0.0
    },
    {
      "x": 53,
      "y": 145,
      "w": 14,
      "h": 24,
      "text": "$",
      "score": 0.71
    },
    {
      "x": 21,
      "y": 171,
      "w": 32,
      "h": 20,
      "text": "i",
      "score": 0.0
    },
    {
      "x": 64,
      "y": 144,
      "w": 120,
      "h": 78,
      "text": "599",
      "score": 0.55
    },
    {
      "x": 118,
      "y": 196,
      "w": 56,
      "h": 24,
      "text": "($ 630)",
      "score": 0.55
    },
    {
      "x": 205,
      "y": 213,
      "w": 32,
      "h": 14,
      "text": "=",
      "score": 0.02
    },
    {
      "x": 189,
      "y": 223,
      "w": 82,
      "h": 18,
      "text": "矛3保迅醞貽粗",
      "score": 0.0
    },
    {
      "x": 211,
      "y": 235,
      "w": 42,
      "h": 12,
      "text": "(]1:4501",
      "score": 0.2
    }
  ]
}