{
  "path": "../bed1/14657356290245336739_9.png",
  "width": 728,
  "height": 90,
  "texts": [
    {
      "x": 634,
      "y": 22,
      "w": 74,
      "h": 24,
      "text": "立即購買",
      "score": 0.98
    },
    {
      "x": 29,
      "y": 25,
      "w": 340,
      "h": 40,
      "text": "官網限定 體驗價HK$120",
      "score": 0.86
    },
    {
      "x": 363,
      "y": 41,
      "w": 78,
      "h": 20,
      "text": "償值 HK$250]",
      "score": 0.4
    },
    {
      "x": 632,
      "y": 44,
      "w": 76,
      "h": 24,
      "text": "免費送貨",
      "score": 0.88
    }
  ]
}