{
  "path": "../bed1/14657356290245336739_1.png",
  "width": 728,
  "height": 90,
  "texts": [
    {
      "x": 634,
      "y": 22,
      "w": 74,
      "h": 24,
      "text": "立即購買",
      "score": 0.98
    },
    {
      "x": 53,
      "y": 29,
      "w": 162,
      "h": 36,
      "text": "VINOPURE",
      "score": 0.87
    },
    {
      "x": 632,
      "y": 44,
      "w": 76,
      "h": 24,
      "text": "免費送貨",
      "score": 0.88
    }
  ]
}