{
  "path": "../bed1/14657356290245336739_4.png",
  "width": 728,
  "height": 90,
  "texts": [
    {
      "x": 634,
      "y": 22,
      "w": 74,
      "h": 24,
      "text": "立即購買",
      "score": 0.98
    },
    {
      "x": 53,
      "y": 25,
      "w": 260,
      "h": 40,
      "text": "VINOPURE 抗油光",
      "score": 0.66
    },
    {
      "x": 632,
      "y": 44,
      "w": 76,
      "h": 24,
      "text": "免費送貨",
      "score": 0.88
    }
  ]
}