{
  "path": "../bed1/14749911527246752253.png",
  "width": 336,
  "height": 280,
  "texts": [
    {
      "x": 143,
      "y": 29,
      "w": 14,
      "h": 14,
      "text": "1=",
      "score": 0.39
    },
    {
      "x": 164,
      "y": 50,
      "w": 98,
      "h": 54,
      "text": "夏天",
      "score": 1.0
    },
    {
      "x": 302,
      "y": 58,
      "w": 28,
      "h": 28,
      "text": "#g",
      "score": 0.01
    },
    {
      "x": 175,
      "y": 99,
      "w": 114,
      "h": 20,
      "text": "/1//&/",
      "score": 0.08
    },
    {
      "x": 125,
      "y": 120,
      "w": 178,
      "h": 48,
      "text": "怎麼美白?",
      "score": 1.0
    },
    {
      "x": 9,
      "y": 173,
      "w": 16,
      "h": 16,
      "text": "1",
      "score": 0.77
    },
    {
      "x": 159,
      "y": 175,
      "w": 108,
      "h": 20,
      "text": "夏于喬教你+",
      "score": 0.22
    },
    {
      "x": 291,
      "y": 195,
      "w": 14,
      "h": 14,
      "text": "#",
      "score": 0.0
    },
    {
      "x": 303,
      "y": 199,
      "w": 14,
      "h": 16,
      "text": "%",
      "score": 0.78
    },
    {
      "x": 23,
      "y": 235,
      "w": 92,
      "h": 20,
      "text": "奇肌女祚 夏于喬",
      "score": 0.07
    },
    {
      "x": 185,
      "y": 257,
      "w": 16,
      "h": 20,
      "text": "{",
      "score": 0.37
    }
  ]
}