{
  "path": "../bed1/15086280668919302780_4.png",
  "width": 320,
  "height": 100,
  "texts": [
    {
      "x": 82,
      "y": 22,
      "w": 158,
      "h": 32,
      "text": "每售出1套套裝",
      "score": 0.99
    },
    {
      "x": 56,
      "y": 50,
      "w": 210,
      "h": 32,
      "text": "我們會 種植1棵樹木",
      "score": 0.99
    }
  ]
}