{
  "path": "../bed1/15086280668919302780_1.png",
  "width": 320,
  "height": 100,
  "texts": [
    {
      "x": 94,
      "y": 20,
      "w": 132,
      "h": 30,
      "text": "環保節日套裝",
      "score": 1.0
    },
    {
      "x": 104,
      "y": 48,
      "w": 112,
      "h": 32,
      "text": "低至6折",
      "score": 0.99
    }
  ]
}