{
  "path": "../bed1/15096112032027833192_7.png",
  "width": 320,
  "height": 50,
  "texts": [
    {
      "x": 87,
      "y": 1,
      "w": 148,
      "h": 44,
      "text": "CAUDALIE",
      "score": 0.62
    }
  ]
}