{
  "path": "../bed1/15096112032027833192_6.png",
  "width": 320,
  "height": 50,
  "texts": [
    {
      "x": 20,
      "y": 14,
      "w": 164,
      "h": 24,
      "text": "白藜蘆醇提昇緊緻精華",
      "score": 0.98
    },
    {
      "x": 203,
      "y": 15,
      "w": 98,
      "h": 20,
      "text": "網店獨家優惠;",
      "score": 0.22
    }
  ]
}