{
  "path": "../bed1/15385755491576382175_4.png",
  "width": 320,
  "height": 50,
  "texts": [
    {
      "x": 83,
      "y": 1,
      "w": 156,
      "h": 44,
      "text": "CAUDALiE",
      "score": 0.63
    }
  ]
}