{
  "path": "../bed1/15385755491576382175_2.png",
  "width": 320,
  "height": 50,
  "texts": [
    {
      "x": 84,
      "y": 10,
      "w": 152,
      "h": 30,
      "text": "98%天然配方",
      "score": 1.0
    }
  ]
}