{
  "path": "../bed1/15492839382972691375_1.png",
  "width": 336,
  "height": 280,
  "texts": [
    {
      "x": 77,
      "y": 17,
      "w": 185,
      "h": 55,
      "text": "CAUDALIE",
      "score": 0.83
    },
    {
      "x": 85,
      "y": 121,
      "w": 172,
      "h": 38,
      "text": "環保節日套裝",
      "score": 0.95
    },
    {
      "x": 69,
      "y": 161,
      "w": 202,
      "h": 62,
      "text": "低至6折",
      "score": 1.0
    }
  ]
}