{
  "path": "../bed1/15518642472183619558_4.png",
  "width": 336,
  "height": 280,
  "texts": [
    {
      "x": 89,
      "y": 5,
      "w": 158,
      "h": 42,
      "text": "CAUDALE",
      "score": 1.0
    },
    {
      "x": 71,
      "y": 85,
      "w": 126,
      "h": 40,
      "text": "白藜蘆醇",
      "score": 0.77
    },
    {
      "x": 280,
      "y": 102,
      "w": 32,
      "h": 24,
      "text": "獨家",
      "score": 0.24
    },
    {
      "x": 39,
      "y": 119,
      "w": 188,
      "h": 40,
      "text": "提昇緊緻精華",
      "score": 1.0
    },
    {
      "x": 230,
      "y": 146,
      "w": 60,
      "h": 24,
      "text": "CAUDAlif",
      "score": 0.35
    },
    {
      "x": 235,
      "y": 175,
      "w": 36,
      "h": 12,
      "text": "o=l1F3",
      "score": 0.02
    },
    {
      "x": 62,
      "y": 179,
      "w": 133,
      "h": 28,
      "text": "網店獨家優惠",
      "score": 0.67
    },
    {
      "x": 251,
      "y": 191,
      "w": 16,
      "h": 12,
      "text": "",
      "score": 0.0
    }
  ]
}