{
  "path": "../bed1/15557720251396769613_6.png",
  "width": 320,
  "height": 100,
  "texts": [
    {
      "x": 48,
      "y": 15,
      "w": 222,
      "h": 64,
      "text": "CAUDALIE",
      "score": 0.76
    }
  ]
}