{
  "path": "../bed1/16074418997799759001.png",
  "width": 300,
  "height": 600,
  "texts": [
    {
      "x": 22,
      "y": 48,
      "w": 94,
      "h": 32,
      "text": "露姬婷",
      "score": 0.79
    },
    {
      "x": 146,
      "y": 58,
      "w": 114,
      "h": 24,
      "text": "礦物潔顏專家",
      "score": 0.1
    },
    {
      "x": 41,
      "y": 73,
      "w": 56,
      "h": 18,
      "text": "ROSHTT",
      "score": 0.21
    },
    {
      "x": 31,
      "y": 289,
      "w": 18,
      "h": 12,
      "text": "口t",
      "score": 0.85
    },
    {
      "x": 73,
      "y": 289,
      "w": 20,
      "h": 12,
      "text": "口1--",
      "score": 0.14
    },
    {
      "x": 135,
      "y": 299,
      "w": 32,
      "h": 16,
      "text": "口",
      "score": 0.3
    },
    {
      "x": 139,
      "y": 307,
      "w": 26,
      "h": 14,
      "text": "o",
      "score": 0.01
    },
    {
      "x": 71,
      "y": 355,
      "w": 30,
      "h": 18,
      "text": "tot",
      "score": 0.02
    },
    {
      "x": 231,
      "y": 391,
      "w": 22,
      "h": 14,
      "text": "MTf",
      "score": 0.08
    },
    {
      "x": 73,
      "y": 403,
      "w": 26,
      "h": 14,
      "text": "Lid",
      "score": 0.07
    },
    {
      "x": 75,
      "y": 413,
      "w": 22,
      "h": 20,
      "text": "沱",
      "score": 0.01
    },
    {
      "x": 131,
      "y": 405,
      "w": 40,
      "h": 42,
      "text": "贈",
      "score": 0.92
    },
    {
      "x": 213,
      "y": 417,
      "w": 28,
      "h": 14,
      "text": "Tt-",
      "score": 0.33
    },
    {
      "x": 197,
      "y": 489,
      "w": 96,
      "h": 20,
      "text": "!1NT255|1202",
      "score": 0.1
    },
    {
      "x": 11,
      "y": 495,
      "w": 134,
      "h": 36,
      "text": "全系列商品",
      "score": 0.99
    },
    {
      "x": 197,
      "y": 505,
      "w": 94,
      "h": 14,
      "text": "1",
      "score": 0.13
    },
    {
      "x": 8,
      "y": 537,
      "w": 143,
      "h": 32,
      "text": "特價149元起",
      "score": 0.8
    },
    {
      "x": 150,
      "y": 524,
      "w": 150,
      "h": 52,
      "text": "任選2件",
      "score": 0.28
    }
  ]
}