{
  "path": "../bed1/16670298522818954496.png",
  "width": 970,
  "height": 250,
  "texts": [
    {
      "x": 48,
      "y": 70,
      "w": 160,
      "h": 48,
      "text": "NIOU",
      "score": 0.67
    },
    {
      "x": 51,
      "y": 117,
      "w": 156,
      "h": 40,
      "text": "AMAZE",
      "score": 1.0
    },
    {
      "x": 260,
      "y": 80,
      "w": 422,
      "h": 72,
      "text": "寵愛媽咪 好馨情",
      "score": 0.61
    },
    {
      "x": 810,
      "y": 120,
      "w": 68,
      "h": 24,
      "text": "NIou",
      "score": 0.44
    },
    {
      "x": 737,
      "y": 141,
      "w": 20,
      "h": 14,
      "text": "0L",
      "score": 0.62
    },
    {
      "x": 809,
      "y": 139,
      "w": 68,
      "h": 20,
      "text": "AMAZE",
      "score": 0.94
    },
    {
      "x": 61,
      "y": 155,
      "w": 136,
      "h": 16,
      "text": "L R F ECT3 K IHLIF",
      "score": 0.61
    },
    {
      "x": 719,
      "y": 151,
      "w": 40,
      "h": 18,
      "text": "\":47[",
      "score": 0.03
    },
    {
      "x": 50,
      "y": 170,
      "w": 160,
      "h": 32,
      "text": "紐奇肌",
      "score": 0.99
    },
    {
      "x": 278,
      "y": 152,
      "w": 388,
      "h": 48,
      "text": "生醫級膠原蛋白限時 5 折",
      "score": 0.69
    },
    {
      "x": 721,
      "y": 171,
      "w": 22,
      "h": 26,
      "text": "#.=",
      "score": 0.2
    },
    {
      "x": 902,
      "y": 172,
      "w": 46,
      "h": 24,
      "text": "紹跣出",
      "score": 0.0
    }
  ]
}