{
  "path": "../bed1/17096590541096333672_0.png",
  "width": 970,
  "height": 90,
  "texts": [
    {
      "x": 17,
      "y": 5,
      "w": 91,
      "h": 24,
      "text": "轄姬婷 ROSETTE",
      "score": 0.15
    },
    {
      "x": 151,
      "y": 3,
      "w": 468,
      "h": 68,
      "text": "粉刺淨斷!!毛孔細小滑嫩的秘密",
      "score": 1.0
    },
    {
      "x": 631,
      "y": 25,
      "w": 138,
      "h": 20,
      "text": "游泥毛扎潔汙洸顏乳",
      "score": 0.15
    },
    {
      "x": 836,
      "y": 38,
      "w": 52,
      "h": 34,
      "text": "了%",
      "score": 0.25
    },
    {
      "x": 820,
      "y": 54,
      "w": 26,
      "h": 24,
      "text": "印",
      "score": 0.0
    }
  ]
}