{
  "path": "../bed1/17206277875347571601.png",
  "width": 930,
  "height": 180,
  "texts": [
    {
      "x": 15,
      "y": 6,
      "w": 69,
      "h": 40,
      "text": "OD",
      "score": 0.37
    },
    {
      "x": 11,
      "y": 45,
      "w": 38,
      "h": 18,
      "text": "Dauhle",
      "score": 0.77
    },
    {
      "x": 321,
      "y": 27,
      "w": 184,
      "h": 44,
      "text": "母親節鉅獻",
      "score": 0.99
    },
    {
      "x": 319,
      "y": 60,
      "w": 286,
      "h": 48,
      "text": "重返青春自然光采",
      "score": 0.98
    },
    {
      "x": 329,
      "y": 101,
      "w": 224,
      "h": 18,
      "text": "2[19.05/01-2019.05.31 M0THLR'$ D11S}lL",
      "score": 0.04
    },
    {
      "x": 859,
      "y": 107,
      "w": 58,
      "h": 20,
      "text": "年度代言人",
      "score": 0.21
    },
    {
      "x": 476,
      "y": 122,
      "w": 188,
      "h": 26,
      "text": "全系列最低43折起",
      "score": 0.86
    },
    {
      "x": 602,
      "y": 148,
      "w": 60,
      "h": 24,
      "text": "立刻貼買",
      "score": 0.67
    },
    {
      "x": 807,
      "y": 122,
      "w": 109,
      "h": 56,
      "text": "H6%",
      "score": 0.01
    }
  ]
}