{
  "path": "../bed1/17242515438067393662.png",
  "width": 1200,
  "height": 628,
  "texts": [
    {
      "x": 299,
      "y": 50,
      "w": 225,
      "h": 89,
      "text": "紐奇肌",
      "score": 0.99
    },
    {
      "x": 499,
      "y": 33,
      "w": 399,
      "h": 138,
      "text": "3大美肌王",
      "score": 1.0
    },
    {
      "x": 149,
      "y": 177,
      "w": 179,
      "h": 54,
      "text": "8/11口",
      "score": 0.81
    },
    {
      "x": 344,
      "y": 167,
      "w": 671,
      "h": 69,
      "text": "8/20 超狂折扣!不買會哭",
      "score": 0.97
    },
    {
      "x": 750,
      "y": 377,
      "w": 66,
      "h": 28,
      "text": "M1ol",
      "score": 0.06
    },
    {
      "x": 551,
      "y": 394,
      "w": 66,
      "h": 28,
      "text": "N1Ou",
      "score": 0.26
    },
    {
      "x": 750,
      "y": 397,
      "w": 69,
      "h": 26,
      "text": "AMAZE",
      "score": 0.8
    },
    {
      "x": 554,
      "y": 415,
      "w": 66,
      "h": 28,
      "text": "AlAZ[",
      "score": 0.31
    },
    {
      "x": 397,
      "y": 441,
      "w": 23,
      "h": 26,
      "text": "0",
      "score": 1.0
    },
    {
      "x": 383,
      "y": 458,
      "w": 28,
      "h": 26,
      "text": "1A",
      "score": 0.18
    },
    {
      "x": 600,
      "y": 478,
      "w": 17,
      "h": 28,
      "text": "5",
      "score": 1.0
    },
    {
      "x": 345,
      "y": 562,
      "w": 98,
      "h": 52,
      "text": "修護",
      "score": 0.99
    },
    {
      "x": 542,
      "y": 562,
      "w": 95,
      "h": 52,
      "text": "保濕",
      "score": 1.0
    },
    {
      "x": 745,
      "y": 562,
      "w": 95,
      "h": 52,
      "text": "美白",
      "score": 1.0
    }
  ]
}