{
  "path": "../bed1/17411294158354145103.png",
  "width": 1200,
  "height": 628,
  "texts": [
    {
      "x": 1030,
      "y": 31,
      "w": 34,
      "h": 34,
      "text": "紐",
      "score": 1.0
    },
    {
      "x": 1086,
      "y": 33,
      "w": 31,
      "h": 28,
      "text": "奇",
      "score": 0.91
    },
    {
      "x": 1141,
      "y": 33,
      "w": 28,
      "h": 31,
      "text": "肌",
      "score": 1.0
    },
    {
      "x": 454,
      "y": 11,
      "w": 342,
      "h": 141,
      "text": "o64",
      "score": 0.19
    },
    {
      "x": 1027,
      "y": 63,
      "w": 147,
      "h": 37,
      "text": "NIOL",
      "score": 0.65
    },
    {
      "x": 1027,
      "y": 101,
      "w": 147,
      "h": 37,
      "text": "AMAZE",
      "score": 1.0
    },
    {
      "x": 383,
      "y": 108,
      "w": 451,
      "h": 130,
      "text": "Cuuntmoa",
      "score": 0.43
    },
    {
      "x": 522,
      "y": 224,
      "w": 190,
      "h": 40,
      "text": "12.15-1/1",
      "score": 0.76
    },
    {
      "x": 911,
      "y": 300,
      "w": 34,
      "h": 49,
      "text": "曾",
      "score": 1.0
    },
    {
      "x": 1038,
      "y": 334,
      "w": 138,
      "h": 52,
      "text": "再加贈",
      "score": 1.0
    },
    {
      "x": 730,
      "y": 412,
      "w": 107,
      "h": 28,
      "text": "NI0L",
      "score": 0.13
    },
    {
      "x": 727,
      "y": 441,
      "w": 109,
      "h": 28,
      "text": "AMAZE",
      "score": 0.66
    },
    {
      "x": 943,
      "y": 355,
      "w": 46,
      "h": 170,
      "text": "岱",
      "score": 0.01
    },
    {
      "x": 502,
      "y": 476,
      "w": 37,
      "h": 17,
      "text": "4101",
      "score": 0.14
    },
    {
      "x": 603,
      "y": 473,
      "w": 40,
      "h": 20,
      "text": "410L",
      "score": 0.01
    },
    {
      "x": 502,
      "y": 476,
      "w": 92,
      "h": 28,
      "text": "1;2al8l",
      "score": 0.02
    },
    {
      "x": 606,
      "y": 484,
      "w": 34,
      "h": 20,
      "text": "147",
      "score": 0.21
    },
    {
      "x": 684,
      "y": 487,
      "w": 23,
      "h": 17,
      "text": "A1",
      "score": 0.27
    },
    {
      "x": 943,
      "y": 471,
      "w": 43,
      "h": 54,
      "text": "貨",
      "score": 0.94
    },
    {
      "x": 1072,
      "y": 486,
      "w": 79,
      "h": 34,
      "text": "/8m8",
      "score": 0.06
    },
    {
      "x": 1124,
      "y": 519,
      "w": 20,
      "h": 20,
      "text": "丑",
      "score": 0.01
    },
    {
      "x": 41,
      "y": 559,
      "w": 289,
      "h": 52,
      "text": "奇肌女神 夏于喬",
      "score": 0.93
    },
    {
      "x": 584,
      "y": 572,
      "w": 410,
      "h": 43,
      "text": "[聖誕限定] 生醫膠原系列禮盒",
      "score": 0.99
    }
  ]
}