{
  "path": "../bed1/17999775179219802550_4.png",
  "width": 250,
  "height": 250,
  "texts": [
    {
      "x": 59,
      "y": 17,
      "w": 134,
      "h": 36,
      "text": "CAUDALIE",
      "score": 0.81
    },
    {
      "x": 45,
      "y": 81,
      "w": 54,
      "h": 20,
      "text": "葡萄籽",
      "score": 0.39
    },
    {
      "x": 18,
      "y": 98,
      "w": 108,
      "h": 24,
      "text": "尊貴時光逆轉",
      "score": 0.97
    },
    {
      "x": 17,
      "y": 121,
      "w": 112,
      "h": 36,
      "text": "全效精華",
      "score": 1.0
    },
    {
      "x": 159,
      "y": 141,
      "w": 56,
      "h": 20,
      "text": "CAUDAliE",
      "score": 0.7
    },
    {
      "x": 40,
      "y": 158,
      "w": 62,
      "h": 24,
      "text": "馬上還購",
      "score": 0.5
    }
  ]
}