{
  "path": "../bed1/18348793778935240061.png",
  "width": 300,
  "height": 600,
  "texts": [
    {
      "x": 113,
      "y": 35,
      "w": 16,
      "h": 14,
      "text": "o",
      "score": 0.29
    },
    {
      "x": 101,
      "y": 43,
      "w": 30,
      "h": 16,
      "text": "l1歪",
      "score": 0.1
    },
    {
      "x": 181,
      "y": 53,
      "w": 32,
      "h": 20,
      "text": " !\"",
      "score": 0.0
    },
    {
      "x": 90,
      "y": 86,
      "w": 50,
      "h": 24,
      "text": "Aqua",
      "score": 0.92
    },
    {
      "x": 22,
      "y": 194,
      "w": 265,
      "h": 48,
      "text": "誰能比你更水?",
      "score": 1.0
    },
    {
      "x": 57,
      "y": 243,
      "w": 181,
      "h": 42,
      "text": "超水感面膜",
      "score": 0.99
    },
    {
      "x": 74,
      "y": 298,
      "w": 156,
      "h": 32,
      "text": "買4送4 $499",
      "score": 0.8
    },
    {
      "x": 147,
      "y": 513,
      "w": 20,
      "h": 16,
      "text": "g",
      "score": 0.0
    },
    {
      "x": 143,
      "y": 539,
      "w": 28,
      "h": 18,
      "text": "Adjua",
      "score": 0.31
    },
    {
      "x": 4,
      "y": 566,
      "w": 162,
      "h": 26,
      "text": "夏于喬真心 推薦",
      "score": 0.64
    }
  ]
}