{
  "path": "../bed1/2059368073055695979_4.png",
  "width": 300,
  "height": 250,
  "texts": [
    {
      "x": 252,
      "y": 10,
      "w": 34,
      "h": 24,
      "text": "官網",
      "score": 0.6
    },
    {
      "x": 250,
      "y": 28,
      "w": 36,
      "h": 24,
      "text": "限定",
      "score": 1.0
    },
    {
      "x": 19,
      "y": 29,
      "w": 130,
      "h": 38,
      "text": "CAUDALIE",
      "score": 0.34
    },
    {
      "x": 43,
      "y": 75,
      "w": 70,
      "h": 40,
      "text": "半價",
      "score": 0.99
    },
    {
      "x": 28,
      "y": 114,
      "w": 106,
      "h": 30,
      "text": "限量50件",
      "score": 1.0
    },
    {
      "x": 34,
      "y": 144,
      "w": 90,
      "h": 30,
      "text": "HK$120",
      "score": 0.69
    },
    {
      "x": 39,
      "y": 167,
      "w": 82,
      "h": 20,
      "text": "憤值 H1$250)",
      "score": 0.23
    },
    {
      "x": 56,
      "y": 214,
      "w": 190,
      "h": 30,
      "text": "立即購買 免費送貨",
      "score": 0.89
    }
  ]
}