{
  "path": "../bed1/2518404678348477214_2.png",
  "width": 320,
  "height": 50,
  "texts": [
    {
      "x": 46,
      "y": 12,
      "w": 168,
      "h": 26,
      "text": "8小時重煥潤白亮肌",
      "score": 0.99
    }
  ]
}