{
  "path": "../bed1/2569970429336218642_2.png",
  "width": 250,
  "height": 250,
  "texts": [
    {
      "x": 76,
      "y": 4,
      "w": 98,
      "h": 28,
      "text": "CAUDALIE",
      "score": 0.79
    },
    {
      "x": 68,
      "y": 40,
      "w": 114,
      "h": 26,
      "text": "新年限定套裝",
      "score": 0.98
    },
    {
      "x": 157,
      "y": 91,
      "w": 20,
      "h": 12,
      "text": "Cin",
      "score": 0.08
    },
    {
      "x": 55,
      "y": 175,
      "w": 136,
      "h": 20,
      "text": "新禧皇牌眼部修誌f裝",
      "score": 0.09
    },
    {
      "x": 65,
      "y": 193,
      "w": 120,
      "h": 18,
      "text": "HK51,000 [11##|1|,631'}",
      "score": 0.06
    },
    {
      "x": 72,
      "y": 216,
      "w": 108,
      "h": 24,
      "text": "馬上選蹦 免費迭貨",
      "score": 0.07
    }
  ]
}