{
  "path": "../bed1/2868688008483526201_7.png",
  "width": 300,
  "height": 600,
  "texts": [
    {
      "x": 73,
      "y": 15,
      "w": 156,
      "h": 44,
      "text": "CAUDALiE",
      "score": 0.6
    },
    {
      "x": 95,
      "y": 91,
      "w": 114,
      "h": 36,
      "text": "官網限定",
      "score": 1.0
    },
    {
      "x": 35,
      "y": 129,
      "w": 234,
      "h": 36,
      "text": "15天急救抗痘療程",
      "score": 0.97
    },
    {
      "x": 90,
      "y": 358,
      "w": 45,
      "h": 20,
      "text": "taoDal",
      "score": 0.26
    },
    {
      "x": 68,
      "y": 471,
      "w": 167,
      "h": 37,
      "text": "體驗價HK$120",
      "score": 0.92
    },
    {
      "x": 100,
      "y": 502,
      "w": 104,
      "h": 24,
      "text": "(價值 HK$250)",
      "score": 0.66
    },
    {
      "x": 56,
      "y": 544,
      "w": 190,
      "h": 30,
      "text": "立即購買 免費送貨",
      "score": 0.92
    }
  ]
}