{
  "path": "../bed1/3022552487207026931_3.png",
  "width": 160,
  "height": 600,
  "texts": [
    {
      "x": 11,
      "y": 13,
      "w": 140,
      "h": 38,
      "text": "CAUDALIE",
      "score": 0.91
    },
    {
      "x": 32,
      "y": 66,
      "w": 96,
      "h": 38,
      "text": "使用7天",
      "score": 0.99
    },
    {
      "x": 40,
      "y": 108,
      "w": 74,
      "h": 28,
      "text": "肌膚更",
      "score": 1.0
    },
    {
      "x": 22,
      "y": 134,
      "w": 116,
      "h": 30,
      "text": "緊緻`水潤",
      "score": 0.45
    },
    {
      "x": 50,
      "y": 162,
      "w": 52,
      "h": 30,
      "text": "飽滿",
      "score": 1.0
    },
    {
      "x": 29,
      "y": 345,
      "w": 94,
      "h": 36,
      "text": "CAUDALf",
      "score": 0.24
    },
    {
      "x": 33,
      "y": 385,
      "w": 81,
      "h": 26,
      "text": " ER TROLfuf",
      "score": 0.14
    },
    {
      "x": 58,
      "y": 414,
      "w": 55,
      "h": 18,
      "text": "SGFIFn",
      "score": 0.01
    },
    {
      "x": 59,
      "y": 429,
      "w": 30,
      "h": 14,
      "text": "Fit",
      "score": 0.1
    },
    {
      "x": 43,
      "y": 513,
      "w": 106,
      "h": 26,
      "text": "1O0 也女忙-禾使吊品自",
      "score": 0.32
    },
    {
      "x": 117,
      "y": 515,
      "w": 14,
      "h": 22,
      "text": "累",
      "score": 0.16
    },
    {
      "x": 39,
      "y": 523,
      "w": 46,
      "h": 18,
      "text": "次;為",
      "score": 0.86
    },
    {
      "x": 97,
      "y": 523,
      "w": 24,
      "h": 18,
      "text": "幽偌",
      "score": 0.01
    },
    {
      "x": 24,
      "y": 555,
      "w": 97,
      "h": 30,
      "text": "免費試用",
      "score": 1.0
    }
  ]
}