{
  "path": "../bed1/3215296313754554694.png",
  "width": 336,
  "height": 280,
  "texts": [
    {
      "x": 64,
      "y": 30,
      "w": 80,
      "h": 30,
      "text": "紐奇肌",
      "score": 0.99
    },
    {
      "x": 140,
      "y": 20,
      "w": 140,
      "h": 50,
      "text": "3大美肌王",
      "score": 0.57
    },
    {
      "x": 26,
      "y": 74,
      "w": 284,
      "h": 24,
      "text": "8/11 -8/20 超狂折扣!不買會哭",
      "score": 0.65
    },
    {
      "x": 227,
      "y": 165,
      "w": 28,
      "h": 14,
      "text": "101",
      "score": 0.27
    },
    {
      "x": 155,
      "y": 175,
      "w": 16,
      "h": 12,
      "text": "0",
      "score": 0.48
    },
    {
      "x": 227,
      "y": 175,
      "w": 28,
      "h": 14,
      "text": "hl1#7",
      "score": 0.09
    },
    {
      "x": 143,
      "y": 183,
      "w": 28,
      "h": 14,
      "text": "iiia?[",
      "score": 0.03
    },
    {
      "x": 51,
      "y": 251,
      "w": 50,
      "h": 20,
      "text": "修護",
      "score": 0.52
    },
    {
      "x": 137,
      "y": 251,
      "w": 44,
      "h": 20,
      "text": "保濕",
      "score": 0.41
    },
    {
      "x": 224,
      "y": 250,
      "w": 42,
      "h": 24,
      "text": "美白",
      "score": 0.95
    }
  ]
}