{
  "path": "../bed1/3334525604360453872_0.png",
  "width": 160,
  "height": 600,
  "texts": [
    {
      "x": 9,
      "y": 35,
      "w": 144,
      "h": 40,
      "text": "CAUDALIE",
      "score": 0.61
    },
    {
      "x": 59,
      "y": 87,
      "w": 44,
      "h": 20,
      "text": "新登場",
      "score": 0.95
    },
    {
      "x": 8,
      "y": 110,
      "w": 148,
      "h": 28,
      "text": "葡萄蔓極緻完美",
      "score": 0.98
    },
    {
      "x": 38,
      "y": 134,
      "w": 86,
      "h": 26,
      "text": "凝白晚霜",
      "score": 1.0
    },
    {
      "x": 51,
      "y": 453,
      "w": 60,
      "h": 20,
      "text": "CAUDAlit",
      "score": 0.27
    },
    {
      "x": 61,
      "y": 471,
      "w": 40,
      "h": 12,
      "text": "eifte1",
      "score": 0.02
    },
    {
      "x": 53,
      "y": 479,
      "w": 54,
      "h": 12,
      "text": "Sinting1",
      "score": 0.01
    },
    {
      "x": 47,
      "y": 545,
      "w": 68,
      "h": 20,
      "text": "立即訂購",
      "score": 0.35
    }
  ]
}