{
  "path": "../bed1/3392970374350321165.png",
  "width": 1200,
  "height": 628,
  "texts": [
    {
      "x": 580,
      "y": 70,
      "w": 26,
      "h": 26,
      "text": "紐",
      "score": 0.9
    },
    {
      "x": 626,
      "y": 70,
      "w": 23,
      "h": 26,
      "text": "奮",
      "score": 0.16
    },
    {
      "x": 666,
      "y": 70,
      "w": 23,
      "h": 26,
      "text": "肌",
      "score": 1.0
    },
    {
      "x": 574,
      "y": 91,
      "w": 120,
      "h": 40,
      "text": "NIOu",
      "score": 0.62
    },
    {
      "x": 156,
      "y": 127,
      "w": 81,
      "h": 34,
      "text": "NTOu",
      "score": 0.64
    },
    {
      "x": 572,
      "y": 127,
      "w": 121,
      "h": 34,
      "text": "AMAZE",
      "score": 1.0
    },
    {
      "x": 154,
      "y": 154,
      "w": 81,
      "h": 28,
      "text": "Ail.杰!",
      "score": 0.0
    },
    {
      "x": 154,
      "y": 253,
      "w": 89,
      "h": 20,
      "text": "A此d由lfn",
      "score": 0.0
    },
    {
      "x": 120,
      "y": 273,
      "w": 162,
      "h": 63,
      "text": "White",
      "score": 0.92
    },
    {
      "x": 392,
      "y": 204,
      "w": 468,
      "h": 133,
      "text": "新品上市",
      "score": 1.0
    },
    {
      "x": 157,
      "y": 342,
      "w": 83,
      "h": 26,
      "text": "油 光遜白",
      "score": 0.02
    },
    {
      "x": 470,
      "y": 340,
      "w": 315,
      "h": 60,
      "text": "White激光透白",
      "score": 1.0
    },
    {
      "x": 151,
      "y": 429,
      "w": 63,
      "h": 17,
      "text": "Widtniis",
      "score": 0.17
    },
    {
      "x": 157,
      "y": 441,
      "w": 78,
      "h": 17,
      "text": "Mo stu e tesh",
      "score": 0.05
    },
    {
      "x": 183,
      "y": 455,
      "w": 28,
      "h": 17,
      "text": "16ml",
      "score": 0.12
    },
    {
      "x": 261,
      "y": 455,
      "w": 46,
      "h": 17,
      "text": ":專團4L",
      "score": 0.0
    },
    {
      "x": 468,
      "y": 436,
      "w": 138,
      "h": 46,
      "text": "買一送",
      "score": 0.99
    },
    {
      "x": 625,
      "y": 422,
      "w": 196,
      "h": 81,
      "text": "$790",
      "score": 1.0
    }
  ]
}