{
  "path": "../bed1/377376080323006512_0.png",
  "width": 250,
  "height": 250,
  "texts": [
    {
      "x": 27,
      "y": 45,
      "w": 122,
      "h": 36,
      "text": "CAUDALIE",
      "score": 0.67
    },
    {
      "x": 24,
      "y": 91,
      "w": 129,
      "h": 48,
      "text": "100%",
      "score": 0.73
    },
    {
      "x": 175,
      "y": 101,
      "w": 50,
      "h": 20,
      "text": "CAUDAlif",
      "score": 0.24
    },
    {
      "x": 25,
      "y": 137,
      "w": 126,
      "h": 38,
      "text": "天然配方",
      "score": 1.0
    }
  ]
}