{
  "path": "../bed1/377376080323006512_3.png",
  "width": 250,
  "height": 250,
  "texts": [
    {
      "x": 27,
      "y": 45,
      "w": 122,
      "h": 36,
      "text": "CAUDALIE",
      "score": 0.67
    },
    {
      "x": 58,
      "y": 91,
      "w": 95,
      "h": 30,
      "text": "緊緻毛孔",
      "score": 1.0
    },
    {
      "x": 175,
      "y": 101,
      "w": 50,
      "h": 20,
      "text": "CAUDAlif",
      "score": 0.24
    },
    {
      "x": 56,
      "y": 122,
      "w": 98,
      "h": 30,
      "text": "煥發光澤",
      "score": 0.99
    },
    {
      "x": 56,
      "y": 152,
      "w": 100,
      "h": 30,
      "text": "控油定妝",
      "score": 1.0
    }
  ]
}