{
  "path": "../bed1/4174089708485013470.png",
  "width": 336,
  "height": 280,
  "texts": [
    {
      "x": 202,
      "y": 12,
      "w": 84,
      "h": 26,
      "text": "IIOU",
      "score": 0.17
    },
    {
      "x": 202,
      "y": 38,
      "w": 86,
      "h": 24,
      "text": "AlAZE",
      "score": 0.66
    },
    {
      "x": 205,
      "y": 67,
      "w": 16,
      "h": 18,
      "text": "紐",
      "score": 0.86
    },
    {
      "x": 271,
      "y": 67,
      "w": 18,
      "h": 18,
      "text": "肌",
      "score": 0.87
    },
    {
      "x": 167,
      "y": 92,
      "w": 161,
      "h": 50,
      "text": "寵愛媽咪",
      "score": 0.99
    },
    {
      "x": 51,
      "y": 163,
      "w": 16,
      "h": 18,
      "text": "0",
      "score": 1.0
    },
    {
      "x": 188,
      "y": 138,
      "w": 120,
      "h": 50,
      "text": "好磬惜",
      "score": 0.26
    },
    {
      "x": 23,
      "y": 179,
      "w": 56,
      "h": 20,
      "text": "MAZE",
      "score": 0.78
    },
    {
      "x": 179,
      "y": 193,
      "w": 136,
      "h": 20,
      "text": "生留級腰原蛋粘華液",
      "score": 0.04
    },
    {
      "x": 33,
      "y": 215,
      "w": 30,
      "h": 14,
      "text": "mrooght",
      "score": 0.05
    },
    {
      "x": 65,
      "y": 219,
      "w": 16,
      "h": 26,
      "text": "3",
      "score": 1.0
    },
    {
      "x": 187,
      "y": 223,
      "w": 128,
      "h": 38,
      "text": "限時5 折",
      "score": 0.48
    }
  ]
}