{
  "path": "../bed1/4333624844521548093_4.png",
  "width": 160,
  "height": 600,
  "texts": [
    {
      "x": 13,
      "y": 11,
      "w": 133,
      "h": 37,
      "text": "CAUDALIE",
      "score": 0.9
    },
    {
      "x": 39,
      "y": 85,
      "w": 86,
      "h": 42,
      "text": "3.3倍",
      "score": 0.97
    },
    {
      "x": 40,
      "y": 126,
      "w": 78,
      "h": 26,
      "text": "自我抗皺",
      "score": 1.0
    },
    {
      "x": 49,
      "y": 153,
      "w": 64,
      "h": 14,
      "text": "二\"嘗衛刊甘+*",
      "score": 0.0
    },
    {
      "x": 112,
      "y": 244,
      "w": 32,
      "h": 24,
      "text": "挹家",
      "score": 0.05
    },
    {
      "x": 127,
      "y": 263,
      "w": 18,
      "h": 18,
      "text": "利",
      "score": 1.0
    },
    {
      "x": 44,
      "y": 316,
      "w": 76,
      "h": 28,
      "text": "CAUDAlif",
      "score": 0.64
    },
    {
      "x": 49,
      "y": 353,
      "w": 48,
      "h": 14,
      "text": "r nHinoL",
      "score": 0.02
    },
    {
      "x": 69,
      "y": 375,
      "w": 36,
      "h": 14,
      "text": "sns Fte",
      "score": 0.02
    },
    {
      "x": 71,
      "y": 387,
      "w": 26,
      "h": 12,
      "text": "11",
      "score": 0.15
    },
    {
      "x": 41,
      "y": 483,
      "w": 77,
      "h": 28,
      "text": "白藜蘆醇",
      "score": 0.99
    },
    {
      "x": 24,
      "y": 506,
      "w": 110,
      "h": 24,
      "text": "提昇緊緻精華",
      "score": 0.94
    },
    {
      "x": 24,
      "y": 546,
      "w": 110,
      "h": 24,
      "text": "網店獨家偃惠>",
      "score": 0.47
    }
  ]
}