{
  "path": "../bed1/4818140407755553684.png",
  "width": 930,
  "height": 180,
  "texts": [
    {
      "x": 23,
      "y": 9,
      "w": 64,
      "h": 36,
      "text": "DD",
      "score": 0.17
    },
    {
      "x": 23,
      "y": 45,
      "w": 62,
      "h": 14,
      "text": "Donhle Lortut",
      "score": 0.27
    },
    {
      "x": 491,
      "y": 51,
      "w": 130,
      "h": 20,
      "text": "SPRING MAlNTENANCE",
      "score": 0.5
    },
    {
      "x": 244,
      "y": 73,
      "w": 39,
      "h": 16,
      "text": "Mhilering",
      "score": 0.11
    },
    {
      "x": 347,
      "y": 75,
      "w": 42,
      "h": 14,
      "text": "hoidurin",
      "score": 0.12
    },
    {
      "x": 519,
      "y": 73,
      "w": 102,
      "h": 20,
      "text": "#春妄必備保養#",
      "score": 0.23
    },
    {
      "x": 526,
      "y": 88,
      "w": 188,
      "h": 92,
      "text": "贈_%銷",
      "score": 0.16
    }
  ]
}