{
  "path": "../bed1/5505548775400326120.png",
  "width": 336,
  "height": 280,
  "texts": [
    {
      "x": 11,
      "y": 29,
      "w": 318,
      "h": 40,
      "text": "專屬忙碌媽咪的溫柔獻禮",
      "score": 1.0
    },
    {
      "x": 60,
      "y": 68,
      "w": 218,
      "h": 30,
      "text": "期間限定組合販售中",
      "score": 0.97
    },
    {
      "x": 182,
      "y": 106,
      "w": 102,
      "h": 30,
      "text": "MINON",
      "score": 0.99
    },
    {
      "x": 182,
      "y": 132,
      "w": 98,
      "h": 20,
      "text": "Aminoioist",
      "score": 0.61
    },
    {
      "x": 79,
      "y": 157,
      "w": 26,
      "h": 14,
      "text": "Millm",
      "score": 0.33
    },
    {
      "x": 155,
      "y": 161,
      "w": 152,
      "h": 20,
      "text": "氨基酸舒敏保濕噴霧組",
      "score": 0.12
    },
    {
      "x": 288,
      "y": 228,
      "w": 46,
      "h": 26,
      "text": "3折UP",
      "score": 0.81
    },
    {
      "x": 174,
      "y": 242,
      "w": 30,
      "h": 24,
      "text": "C0",
      "score": 0.84
    },
    {
      "x": 299,
      "y": 253,
      "w": 20,
      "h": 22,
      "text": "7",
      "score": 0.81
    }
  ]
}