{
  "path": "../bed1/5762886572606645850_0.png",
  "width": 300,
  "height": 250,
  "texts": [
    {
      "x": 30,
      "y": 30,
      "w": 108,
      "h": 32,
      "text": "CAUDALIE",
      "score": 0.51
    },
    {
      "x": 239,
      "y": 49,
      "w": 48,
      "h": 20,
      "text": "200+1[",
      "score": 0.58
    },
    {
      "x": 44,
      "y": 72,
      "w": 82,
      "h": 26,
      "text": "官網專享",
      "score": 0.98
    },
    {
      "x": 245,
      "y": 73,
      "w": 38,
      "h": 20,
      "text": "75ML",
      "score": 0.69
    },
    {
      "x": 181,
      "y": 81,
      "w": 52,
      "h": 20,
      "text": "GuDiil{",
      "score": 0.7
    },
    {
      "x": 15,
      "y": 99,
      "w": 139,
      "h": 36,
      "text": "6.18禮遇",
      "score": 1.0
    },
    {
      "x": 68,
      "y": 218,
      "w": 162,
      "h": 26,
      "text": "更多套裝低至6折",
      "score": 0.95
    }
  ]
}