{
  "path": "../bed1/6266124959421487250.png",
  "width": 1200,
  "height": 628,
  "texts": [
    {
      "x": 322,
      "y": 53,
      "w": 23,
      "h": 23,
      "text": "紐",
      "score": 0.99
    },
    {
      "x": 368,
      "y": 53,
      "w": 26,
      "h": 26,
      "text": "苛",
      "score": 0.3
    },
    {
      "x": 415,
      "y": 53,
      "w": 23,
      "h": 26,
      "text": "肌",
      "score": 0.98
    },
    {
      "x": 315,
      "y": 75,
      "w": 127,
      "h": 37,
      "text": "NIOU",
      "score": 0.9
    },
    {
      "x": 315,
      "y": 112,
      "w": 127,
      "h": 34,
      "text": "AMAZE",
      "score": 0.84
    },
    {
      "x": 202,
      "y": 173,
      "w": 358,
      "h": 81,
      "text": "超水感面膜",
      "score": 1.0
    },
    {
      "x": 69,
      "y": 263,
      "w": 630,
      "h": 109,
      "text": "誰能比你更水?",
      "score": 1.0
    },
    {
      "x": 721,
      "y": 403,
      "w": 43,
      "h": 20,
      "text": "Mou",
      "score": 0.69
    },
    {
      "x": 721,
      "y": 415,
      "w": 46,
      "h": 26,
      "text": "4",
      "score": 0.01
    },
    {
      "x": 982,
      "y": 432,
      "w": 40,
      "h": 28,
      "text": "d蜚",
      "score": 0.0
    },
    {
      "x": 211,
      "y": 422,
      "w": 361,
      "h": 75,
      "text": "買4送4 $499",
      "score": 1.0
    },
    {
      "x": 706,
      "y": 477,
      "w": 75,
      "h": 37,
      "text": "Aqua",
      "score": 1.0
    },
    {
      "x": 972,
      "y": 491,
      "w": 60,
      "h": 34,
      "text": "Aqua",
      "score": 0.99
    },
    {
      "x": 721,
      "y": 513,
      "w": 43,
      "h": 20,
      "text": "崔耳仙!",
      "score": 0.0
    },
    {
      "x": 201,
      "y": 536,
      "w": 370,
      "h": 63,
      "text": "夏于喬真心 推薦",
      "score": 0.97
    }
  ]
}