{
  "path": "../bed1/672502526421615774_2.png",
  "width": 300,
  "height": 250,
  "texts": [
    {
      "x": 100,
      "y": 6,
      "w": 102,
      "h": 29,
      "text": "CAUDALIE",
      "score": 0.57
    },
    {
      "x": 87,
      "y": 39,
      "w": 122,
      "h": 26,
      "text": "新年限定套裝",
      "score": 1.0
    },
    {
      "x": 183,
      "y": 97,
      "w": 26,
      "h": 12,
      "text": "Cin",
      "score": 0.1
    },
    {
      "x": 225,
      "y": 93,
      "w": 40,
      "h": 20,
      "text": "39%",
      "score": 1.0
    },
    {
      "x": 87,
      "y": 179,
      "w": 128,
      "h": 20,
      "text": "新禧皇牌眼部慘護套裝",
      "score": 0.16
    },
    {
      "x": 95,
      "y": 195,
      "w": 110,
      "h": 18,
      "text": "HK$I,o00 (恬HK51,&11]",
      "score": 0.03
    },
    {
      "x": 96,
      "y": 216,
      "w": 108,
      "h": 24,
      "text": "焉上選瞞 免賚送貨",
      "score": 0.06
    }
  ]
}