{
  "path": "../bed1/672502526421615774_4.png",
  "width": 300,
  "height": 250,
  "texts": [
    {
      "x": 100,
      "y": 6,
      "w": 102,
      "h": 29,
      "text": "CAUDALIE",
      "score": 0.57
    },
    {
      "x": 87,
      "y": 39,
      "w": 122,
      "h": 26,
      "text": "新年限定套裝",
      "score": 1.0
    },
    {
      "x": 227,
      "y": 77,
      "w": 34,
      "h": 18,
      "text": "SAw[",
      "score": 0.15
    },
    {
      "x": 181,
      "y": 95,
      "w": 26,
      "h": 14,
      "text": "C\"",
      "score": 0.04
    },
    {
      "x": 223,
      "y": 91,
      "w": 16,
      "h": 20,
      "text": "2",
      "score": 0.67
    },
    {
      "x": 249,
      "y": 95,
      "w": 16,
      "h": 20,
      "text": "%",
      "score": 1.0
    },
    {
      "x": 153,
      "y": 113,
      "w": 22,
      "h": 12,
      "text": "ini",
      "score": 0.18
    },
    {
      "x": 84,
      "y": 176,
      "w": 132,
      "h": 24,
      "text": "新禧全效亮白潤肌套裝",
      "score": 0.44
    },
    {
      "x": 95,
      "y": 195,
      "w": 54,
      "h": 18,
      "text": "HK$1,400",
      "score": 0.61
    },
    {
      "x": 165,
      "y": 199,
      "w": 38,
      "h": 12,
      "text": "]H#51.7]",
      "score": 0.13
    },
    {
      "x": 96,
      "y": 216,
      "w": 108,
      "h": 24,
      "text": "焉上選瞞 免賚送貨",
      "score": 0.06
    }
  ]
}