{
  "path": "../bed1/6981050919177855693_4.png",
  "width": 320,
  "height": 50,
  "texts": [
    {
      "x": 70,
      "y": 14,
      "w": 182,
      "h": 26,
      "text": "我們會 種植1棵樹木",
      "score": 0.95
    }
  ]
}