{
  "path": "../bed1/7050158593134456903_4.png",
  "width": 300,
  "height": 600,
  "texts": [
    {
      "x": 62,
      "y": 34,
      "w": 178,
      "h": 50,
      "text": "CAUDALIE",
      "score": 0.67
    },
    {
      "x": 114,
      "y": 106,
      "w": 72,
      "h": 30,
      "text": "葡萄籽",
      "score": 1.0
    },
    {
      "x": 84,
      "y": 132,
      "w": 134,
      "h": 28,
      "text": "尊貴時光逆轉",
      "score": 0.97
    },
    {
      "x": 82,
      "y": 154,
      "w": 134,
      "h": 42,
      "text": "全效精華",
      "score": 0.61
    },
    {
      "x": 100,
      "y": 344,
      "w": 96,
      "h": 28,
      "text": "CAUDALE",
      "score": 0.86
    },
    {
      "x": 117,
      "y": 375,
      "w": 66,
      "h": 18,
      "text": "pREMIER CRU",
      "score": 0.36
    },
    {
      "x": 131,
      "y": 393,
      "w": 34,
      "h": 14,
      "text": "ESoms",
      "score": 0.08
    },
    {
      "x": 127,
      "y": 403,
      "w": 34,
      "h": 12,
      "text": "甲 Si",
      "score": 0.02
    },
    {
      "x": 108,
      "y": 520,
      "w": 84,
      "h": 26,
      "text": "馬上選購",
      "score": 0.98
    }
  ]
}