{
  "path": "../bed1/7054463815530495413_0.png",
  "width": 300,
  "height": 250,
  "texts": [
    {
      "x": 29,
      "y": 19,
      "w": 130,
      "h": 40,
      "text": "CAUDALIE",
      "score": 0.7
    },
    {
      "x": 40,
      "y": 68,
      "w": 106,
      "h": 26,
      "text": "VINOPURE",
      "score": 0.93
    },
    {
      "x": 56,
      "y": 214,
      "w": 190,
      "h": 30,
      "text": "立即購買 免費送貨",
      "score": 0.87
    }
  ]
}