{
  "path": "../bed1/7418740663428469029.png",
  "width": 1200,
  "height": 628,
  "texts": [
    {
      "x": 421,
      "y": 75,
      "w": 117,
      "h": 40,
      "text": "NIOu",
      "score": 0.6
    },
    {
      "x": 423,
      "y": 111,
      "w": 115,
      "h": 28,
      "text": "AMAZE",
      "score": 0.9
    },
    {
      "x": 423,
      "y": 146,
      "w": 26,
      "h": 31,
      "text": "紐",
      "score": 0.96
    },
    {
      "x": 470,
      "y": 149,
      "w": 26,
      "h": 26,
      "text": "苛",
      "score": 0.18
    },
    {
      "x": 513,
      "y": 146,
      "w": 26,
      "h": 31,
      "text": "皿",
      "score": 0.16
    },
    {
      "x": 231,
      "y": 163,
      "w": 493,
      "h": 160,
      "text": "迎春特惠",
      "score": 0.95
    },
    {
      "x": 379,
      "y": 319,
      "w": 199,
      "h": 52,
      "text": "1/3~1/20",
      "score": 1.0
    },
    {
      "x": 120,
      "y": 380,
      "w": 23,
      "h": 20,
      "text": "nu",
      "score": 0.13
    },
    {
      "x": 256,
      "y": 374,
      "w": 23,
      "h": 20,
      "text": "ou",
      "score": 0.13
    },
    {
      "x": 235,
      "y": 386,
      "w": 43,
      "h": 20,
      "text": ":.@!2!.",
      "score": 0.03
    },
    {
      "x": 102,
      "y": 394,
      "w": 40,
      "h": 20,
      "text": "1451",
      "score": 0.0
    },
    {
      "x": 383,
      "y": 425,
      "w": 227,
      "h": 43,
      "text": "Aqua超導補水面膜",
      "score": 0.72
    },
    {
      "x": 89,
      "y": 457,
      "w": 60,
      "h": 34,
      "text": "Aqu",
      "score": 1.0
    },
    {
      "x": 117,
      "y": 493,
      "w": 23,
      "h": 17,
      "text": "=#",
      "score": 0.01
    },
    {
      "x": 370,
      "y": 461,
      "w": 250,
      "h": 95,
      "text": "$4280",
      "score": 1.0
    },
    {
      "x": 250,
      "y": 530,
      "w": 31,
      "h": 20,
      "text": "3",
      "score": 0.0
    },
    {
      "x": 108,
      "y": 539,
      "w": 31,
      "h": 28,
      "text": "5*",
      "score": 0.0
    }
  ]
}