{
  "path": "../bed1/7775672901438844140_4.png",
  "width": 300,
  "height": 600,
  "texts": [
    {
      "x": 56,
      "y": 28,
      "w": 186,
      "h": 52,
      "text": "CAUDALIE",
      "score": 0.53
    },
    {
      "x": 69,
      "y": 111,
      "w": 160,
      "h": 42,
      "text": "築隸部喜:饕",
      "score": 0.0
    },
    {
      "x": 55,
      "y": 159,
      "w": 190,
      "h": 68,
      "text": "稱m袛",
      "score": 0.0
    },
    {
      "x": 223,
      "y": 505,
      "w": 18,
      "h": 20,
      "text": "澎",
      "score": 0.0
    },
    {
      "x": 56,
      "y": 536,
      "w": 174,
      "h": 30,
      "text": "馬上驩 #}送1",
      "score": 0.0
    }
  ]
}