{
  "path": "../bed1/8744835681807339224.png",
  "width": 300,
  "height": 600,
  "texts": [
    {
      "x": 106,
      "y": 24,
      "w": 86,
      "h": 24,
      "text": "IIOU",
      "score": 0.18
    },
    {
      "x": 106,
      "y": 48,
      "w": 86,
      "h": 24,
      "text": "AMAZE",
      "score": 0.89
    },
    {
      "x": 47,
      "y": 113,
      "w": 194,
      "h": 60,
      "text": "水水der!",
      "score": 0.73
    },
    {
      "x": 30,
      "y": 170,
      "w": 248,
      "h": 56,
      "text": "Aqua面膜組",
      "score": 1.0
    },
    {
      "x": 171,
      "y": 291,
      "w": 40,
      "h": 18,
      "text": "MIou",
      "score": 0.15
    },
    {
      "x": 171,
      "y": 301,
      "w": 40,
      "h": 20,
      "text": "4.442!",
      "score": 0.02
    },
    {
      "x": 224,
      "y": 452,
      "w": 40,
      "h": 24,
      "text": "40#",
      "score": 0.13
    },
    {
      "x": 45,
      "y": 499,
      "w": 233,
      "h": 38,
      "text": "$1,980/40片(原價$2,240)",
      "score": 0.91
    }
  ]
}