{
  "path": "../bed1/891077427548519389.png",
  "width": 468,
  "height": 60,
  "texts": [
    {
      "x": 12,
      "y": 10,
      "w": 46,
      "h": 26,
      "text": "D",
      "score": 0.81
    },
    {
      "x": 197,
      "y": 0,
      "w": 233,
      "h": 60,
      "text": "釀促銷買贈",
      "score": 0.09
    },
    {
      "x": 7,
      "y": 37,
      "w": 48,
      "h": 12,
      "text": "Unulr Lwln",
      "score": 0.08
    }
  ]
}