{
  "path": "../bed1/9523981797110317137.png",
  "width": 300,
  "height": 1050,
  "texts": [
    {
      "x": 101,
      "y": 17,
      "w": 98,
      "h": 68,
      "text": "OD",
      "score": 0.06
    },
    {
      "x": 90,
      "y": 86,
      "w": 112,
      "h": 24,
      "text": "Double Doctor",
      "score": 0.99
    },
    {
      "x": 99,
      "y": 157,
      "w": 134,
      "h": 140,
      "text": "面",
      "score": 0.62
    },
    {
      "x": 194,
      "y": 232,
      "w": 98,
      "h": 102,
      "text": "膜",
      "score": 0.99
    },
    {
      "x": 157,
      "y": 297,
      "w": 44,
      "h": 42,
      "text": "(",
      "score": 0.23
    },
    {
      "x": 56,
      "y": 290,
      "w": 158,
      "h": 150,
      "text": "促",
      "score": 0.98
    },
    {
      "x": 208,
      "y": 340,
      "w": 58,
      "h": 34,
      "text": "%#",
      "score": 0.98
    },
    {
      "x": 204,
      "y": 339,
      "w": 33,
      "h": 89,
      "text": "",
      "score": 0.0
    },
    {
      "x": 240,
      "y": 372,
      "w": 30,
      "h": 32,
      "text": "養",
      "score": 0.64
    },
    {
      "x": 242,
      "y": 396,
      "w": 26,
      "h": 50,
      "text": "蹇",
      "score": 0.1
    },
    {
      "x": 242,
      "y": 438,
      "w": 28,
      "h": 32,
      "text": "備",
      "score": 1.0
    },
    {
      "x": 242,
      "y": 460,
      "w": 28,
      "h": 68,
      "text": "睪",
      "score": 0.01
    },
    {
      "x": 206,
      "y": 504,
      "w": 28,
      "h": 66,
      "text": "",
      "score": 0.0
    },
    {
      "x": 12,
      "y": 522,
      "w": 150,
      "h": 74,
      "text": "買",
      "score": 0.65
    },
    {
      "x": 208,
      "y": 560,
      "w": 24,
      "h": 24,
      "text": "皿",
      "score": 0.03
    },
    {
      "x": 19,
      "y": 573,
      "w": 184,
      "h": 90,
      "text": "贈",
      "score": 0.9
    },
    {
      "x": 56,
      "y": 825,
      "w": 47,
      "h": 19,
      "text": "walilening",
      "score": 0.1
    },
    {
      "x": 180,
      "y": 825,
      "w": 57,
      "h": 20,
      "text": "ioishriaing",
      "score": 0.58
    },
    {
      "x": 69,
      "y": 839,
      "w": 20,
      "h": 12,
      "text": "bui",
      "score": 0.07
    },
    {
      "x": 199,
      "y": 839,
      "w": 20,
      "h": 12,
      "text": "iinsd:",
      "score": 0.07
    }
  ]
}