{
  "path": "../bed1/9548296238828619130_5.png",
  "width": 728,
  "height": 90,
  "texts": [
    {
      "x": 663,
      "y": 25,
      "w": 40,
      "h": 20,
      "text": "立即",
      "score": 0.99
    },
    {
      "x": 47,
      "y": 25,
      "w": 134,
      "h": 38,
      "text": "CAUDALIE",
      "score": 0.92
    },
    {
      "x": 235,
      "y": 24,
      "w": 350,
      "h": 41,
      "text": "限量版 皇后水_正式登場",
      "score": 0.99
    },
    {
      "x": 662,
      "y": 42,
      "w": 42,
      "h": 24,
      "text": "選購",
      "score": 0.98
    }
  ]
}