{
  "path": "../bed1/9936643881979359224_2.png",
  "width": 300,
  "height": 600,
  "texts": [
    {
      "x": 48,
      "y": 14,
      "w": 200,
      "h": 52,
      "text": "CAUDALIE",
      "score": 0.84
    },
    {
      "x": 95,
      "y": 75,
      "w": 104,
      "h": 38,
      "text": "使用7天",
      "score": 0.99
    },
    {
      "x": 69,
      "y": 115,
      "w": 170,
      "h": 38,
      "text": "肌膚更緊緻`",
      "score": 0.81
    },
    {
      "x": 69,
      "y": 155,
      "w": 64,
      "h": 36,
      "text": "水潤",
      "score": 1.0
    },
    {
      "x": 159,
      "y": 151,
      "w": 68,
      "h": 40,
      "text": "飽滿",
      "score": 1.0
    },
    {
      "x": 96,
      "y": 354,
      "w": 105,
      "h": 40,
      "text": "CAUDAlI",
      "score": 0.16
    },
    {
      "x": 129,
      "y": 437,
      "w": 28,
      "h": 14,
      "text": "Sinuw",
      "score": 0.12
    },
    {
      "x": 154,
      "y": 431,
      "w": 37,
      "h": 18,
      "text": "Tonws",
      "score": 0.03
    },
    {
      "x": 129,
      "y": 453,
      "w": 34,
      "h": 14,
      "text": "FlRili;5",
      "score": 0.1
    },
    {
      "x": 35,
      "y": 535,
      "w": 44,
      "h": 18,
      "text": "聲以 lCo",
      "score": 0.03
    },
    {
      "x": 99,
      "y": 535,
      "w": 182,
      "h": 20,
      "text": "性每天使用座品一次'為朗7日的鮚果",
      "score": 0.1
    },
    {
      "x": 89,
      "y": 563,
      "w": 106,
      "h": 28,
      "text": "免費試用`",
      "score": 0.44
    }
  ]
}