{
  "path": "../bed1/10068847379882433909_0.png",
  "width": 200,
  "height": 200,
  "texts": [
    {
      "x": 6,
      "y": 10,
      "w": 68,
      "h": 30,
      "text": "花MPDR",
      "score": 0.06
    },
    {
      "x": 134,
      "y": 10,
      "w": 26,
      "h": 24,
      "text": "體",
      "score": 0.03
    },
    {
      "x": 18,
      "y": 70,
      "w": 79,
      "h": 73,
      "text": "5折",
      "score": 1.0
    },
    {
      "x": 87,
      "y": 139,
      "w": 108,
      "h": 20,
      "text": "崇光感謝周年廢",
      "score": 0.2
    },
    {
      "x": 0,
      "y": 154,
      "w": 40,
      "h": 24,
      "text": "最後",
      "score": 0.66
    },
    {
      "x": 101,
      "y": 155,
      "w": 94,
      "h": 20,
      "text": "舒壓床褥枕頭",
      "score": 0.72
    },
    {
      "x": 145,
      "y": 173,
      "w": 48,
      "h": 14,
      "text": "H=fm口#",
      "score": 0.0
    },
    {
      "x": 0,
      "y": 174,
      "w": 106,
      "h": 24,
      "text": "機會至5月26日",
      "score": 0.29
    }
  ]
}