{
  "path": "../bed1/10242018804600689960_2.png",
  "width": 336,
  "height": 280,
  "texts": [
    {
      "x": 27,
      "y": 6,
      "w": 276,
      "h": 56,
      "text": "Soolu澳洲進口床褥",
      "score": 1.0
    },
    {
      "x": 82,
      "y": 58,
      "w": 154,
      "h": 32,
      "text": "解決久睡背痛",
      "score": 0.99
    },
    {
      "x": 41,
      "y": 82,
      "w": 255,
      "h": 48,
      "text": "助你擁有深度睡眠",
      "score": 1.0
    },
    {
      "x": 271,
      "y": 217,
      "w": 40,
      "h": 20,
      "text": "Jealu.",
      "score": 0.56
    },
    {
      "x": 22,
      "y": 232,
      "w": 166,
      "h": 32,
      "text": "立即踏出第一步",
      "score": 0.94
    },
    {
      "x": 253,
      "y": 251,
      "w": 74,
      "h": 20,
      "text": "赫測床褥",
      "score": 0.0
    }
  ]
}