{
  "path": "../bed1/11452000901555149206_2.png",
  "width": 160,
  "height": 600,
  "texts": [
    {
      "x": 20,
      "y": 45,
      "w": 123,
      "h": 32,
      "text": "TEMPUR",
      "score": 1.0
    },
    {
      "x": 8,
      "y": 232,
      "w": 117,
      "h": 26,
      "text": "指定Original",
      "score": 0.99
    },
    {
      "x": 8,
      "y": 259,
      "w": 135,
      "h": 38,
      "text": "床褥低至6折",
      "score": 1.0
    },
    {
      "x": 25,
      "y": 309,
      "w": 42,
      "h": 20,
      "text": "NEW!",
      "score": 0.99
    },
    {
      "x": 22,
      "y": 458,
      "w": 128,
      "h": 24,
      "text": "指定Sensation",
      "score": 0.98
    },
    {
      "x": 24,
      "y": 484,
      "w": 78,
      "h": 26,
      "text": "床褥低至",
      "score": 0.41
    },
    {
      "x": 101,
      "y": 489,
      "w": 52,
      "h": 38,
      "text": "4折",
      "score": 1.0
    },
    {
      "x": 24,
      "y": 520,
      "w": 100,
      "h": 24,
      "text": "熱實型號 尚餘少",
      "score": 0.16
    },
    {
      "x": 12,
      "y": 546,
      "w": 112,
      "h": 24,
      "text": "卉業咨詢 度身選配",
      "score": 0.3
    },
    {
      "x": 9,
      "y": 579,
      "w": 68,
      "h": 18,
      "text": "c用#措定型%",
      "score": 0.0
    }
  ]
}