{
  "path": "../bed1/11744359792625254223_0.png",
  "width": 300,
  "height": 250,
  "texts": [
    {
      "x": 8,
      "y": 14,
      "w": 74,
      "h": 30,
      "text": "詫MPUR",
      "score": 0.06
    },
    {
      "x": 212,
      "y": 14,
      "w": 28,
      "h": 26,
      "text": "u",
      "score": 0.02
    },
    {
      "x": 9,
      "y": 53,
      "w": 108,
      "h": 36,
      "text": "永安百貨",
      "score": 0.1
    },
    {
      "x": 10,
      "y": 83,
      "w": 105,
      "h": 26,
      "text": "超級購物日",
      "score": 1.0
    },
    {
      "x": 10,
      "y": 106,
      "w": 72,
      "h": 24,
      "text": "至27!10",
      "score": 0.42
    },
    {
      "x": 131,
      "y": 169,
      "w": 60,
      "h": 20,
      "text": "舒匡床品",
      "score": 0.76
    },
    {
      "x": 20,
      "y": 186,
      "w": 82,
      "h": 26,
      "text": "永安獨家",
      "score": 0.97
    },
    {
      "x": 131,
      "y": 191,
      "w": 64,
      "h": 36,
      "text": "低至",
      "score": 0.99
    },
    {
      "x": 193,
      "y": 157,
      "w": 68,
      "h": 80,
      "text": "5",
      "score": 0.47
    },
    {
      "x": 249,
      "y": 189,
      "w": 42,
      "h": 40,
      "text": "折",
      "score": 1.0
    },
    {
      "x": 20,
      "y": 210,
      "w": 82,
      "h": 26,
      "text": "最後一週",
      "score": 0.91
    },
    {
      "x": 175,
      "y": 235,
      "w": 112,
      "h": 12,
      "text": "江甲亡市土瓦1衛昆尹r兀#",
      "score": 0.0
    }
  ]
}