{
  "path": "../bed1/12570677377789096074_0.png",
  "width": 300,
  "height": 250,
  "texts": [
    {
      "x": 94,
      "y": 4,
      "w": 118,
      "h": 30,
      "text": "SINCMAX",
      "score": 0.53
    },
    {
      "x": 54,
      "y": 44,
      "w": 208,
      "h": 32,
      "text": "點止舒服咁簡單?",
      "score": 0.98
    },
    {
      "x": 205,
      "y": 81,
      "w": 24,
      "h": 16,
      "text": "VIp",
      "score": 0.54
    },
    {
      "x": 251,
      "y": 81,
      "w": 26,
      "h": 16,
      "text": "匠地",
      "score": 0.0
    },
    {
      "x": 59,
      "y": 111,
      "w": 50,
      "h": 18,
      "text": "日WR口人",
      "score": 0.01
    },
    {
      "x": 253,
      "y": 119,
      "w": 26,
      "h": 20,
      "text": "0#f",
      "score": 0.08
    },
    {
      "x": 71,
      "y": 125,
      "w": 28,
      "h": 20,
      "text": "陳衰",
      "score": 0.11
    }
  ]
}