{
  "path": "../bed1/14224020248264794191_1.png",
  "width": 200,
  "height": 200,
  "texts": [
    {
      "x": 25,
      "y": 19,
      "w": 48,
      "h": 20,
      "text": "MPUR",
      "score": 1.0
    },
    {
      "x": 134,
      "y": 10,
      "w": 26,
      "h": 24,
      "text": "體",
      "score": 0.06
    },
    {
      "x": 103,
      "y": 46,
      "w": 77,
      "h": 26,
      "text": "差團太空總罟",
      "score": 0.04
    },
    {
      "x": 105,
      "y": 65,
      "w": 62,
      "h": 20,
      "text": "研聚物抖及",
      "score": 0.04
    },
    {
      "x": 127,
      "y": 79,
      "w": 28,
      "h": 18,
      "text": "詔證",
      "score": 0.26
    },
    {
      "x": 107,
      "y": 119,
      "w": 64,
      "h": 20,
      "text": "全 舒歷床桶",
      "score": 0.02
    },
    {
      "x": 102,
      "y": 134,
      "w": 86,
      "h": 52,
      "text": "65折",
      "score": 0.99
    },
    {
      "x": 139,
      "y": 179,
      "w": 44,
      "h": 16,
      "text": "$9,945.",
      "score": 0.16
    }
  ]
}