{
  "path": "../bed1/1442974307420700722_0.png",
  "width": 336,
  "height": 280,
  "texts": [
    {
      "x": 8,
      "y": 80,
      "w": 298,
      "h": 50,
      "text": "全球多間5星級酒店",
      "score": 0.97
    },
    {
      "x": 9,
      "y": 128,
      "w": 201,
      "h": 44,
      "text": "指定床褥品牌",
      "score": 1.0
    },
    {
      "x": 272,
      "y": 218,
      "w": 40,
      "h": 24,
      "text": "Gedly.",
      "score": 0.13
    },
    {
      "x": 255,
      "y": 251,
      "w": 74,
      "h": 20,
      "text": "絲泄床褥",
      "score": 0.09
    }
  ]
}