{
  "path": "../bed1/15300392002588009765_1.png",
  "width": 300,
  "height": 600,
  "texts": [
    {
      "x": 63,
      "y": 25,
      "w": 170,
      "h": 42,
      "text": "SINCMAX",
      "score": 0.62
    },
    {
      "x": 125,
      "y": 139,
      "w": 42,
      "h": 48,
      "text": "小",
      "score": 0.95
    },
    {
      "x": 124,
      "y": 178,
      "w": 48,
      "h": 60,
      "text": "童",
      "score": 1.0
    },
    {
      "x": 124,
      "y": 228,
      "w": 52,
      "h": 60,
      "text": "桌",
      "score": 0.88
    },
    {
      "x": 122,
      "y": 276,
      "w": 54,
      "h": 58,
      "text": "椅",
      "score": 0.99
    },
    {
      "x": 122,
      "y": 322,
      "w": 54,
      "h": 60,
      "text": "套",
      "score": 1.0
    },
    {
      "x": 122,
      "y": 370,
      "w": 52,
      "h": 58,
      "text": "裝",
      "score": 1.0
    },
    {
      "x": 60,
      "y": 486,
      "w": 46,
      "h": 28,
      "text": "低至",
      "score": 0.99
    },
    {
      "x": 56,
      "y": 508,
      "w": 188,
      "h": 50,
      "text": "$3,499起",
      "score": 0.99
    }
  ]
}