{
  "path": "../bed1/15692149399318222688_1.png",
  "width": 728,
  "height": 90,
  "texts": [
    {
      "x": 485,
      "y": 3,
      "w": 26,
      "h": 18,
      "text": "低至",
      "score": 0.49
    },
    {
      "x": 312,
      "y": 8,
      "w": 92,
      "h": 26,
      "text": "熱賣床褥`",
      "score": 0.85
    },
    {
      "x": 18,
      "y": 41,
      "w": 121,
      "h": 30,
      "text": "TEMPUR",
      "score": 1.0
    },
    {
      "x": 159,
      "y": 51,
      "w": 60,
      "h": 14,
      "text": "MnEEll DflwAar",
      "score": 0.02
    },
    {
      "x": 312,
      "y": 32,
      "w": 92,
      "h": 26,
      "text": "枕頭`床架",
      "score": 0.66
    },
    {
      "x": 427,
      "y": 5,
      "w": 101,
      "h": 84,
      "text": "5折",
      "score": 1.0
    },
    {
      "x": 159,
      "y": 59,
      "w": 28,
      "h": 14,
      "text": "市量#",
      "score": 0.0
    },
    {
      "x": 323,
      "y": 61,
      "w": 86,
      "h": 20,
      "text": "全掠專門店家",
      "score": 0.04
    }
  ]
}