{
  "path": "../bed1/16087124252571928917_2.png",
  "width": 336,
  "height": 280,
  "texts": [
    {
      "x": 26,
      "y": 17,
      "w": 277,
      "h": 56,
      "text": "Sdly澳洲進口床褥",
      "score": 1.0
    },
    {
      "x": 29,
      "y": 68,
      "w": 277,
      "h": 52,
      "text": "將5星級享受帶回家中",
      "score": 0.97
    },
    {
      "x": 272,
      "y": 218,
      "w": 40,
      "h": 24,
      "text": "Gedly.",
      "score": 0.17
    },
    {
      "x": 22,
      "y": 232,
      "w": 166,
      "h": 32,
      "text": "立即踏出第一步",
      "score": 0.94
    },
    {
      "x": 255,
      "y": 251,
      "w": 74,
      "h": 20,
      "text": "絲泄床褥",
      "score": 0.05
    }
  ]
}