{
  "path": "../bed1/1628269078126488911_0.png",
  "width": 320,
  "height": 50,
  "texts": [
    {
      "x": 275,
      "y": 9,
      "w": 30,
      "h": 18,
      "text": "Gedio",
      "score": 0.06
    },
    {
      "x": 28,
      "y": 12,
      "w": 198,
      "h": 28,
      "text": "腳得唔好家嘈屋閉?",
      "score": 0.97
    },
    {
      "x": 265,
      "y": 31,
      "w": 52,
      "h": 18,
      "text": "櫛A床楣",
      "score": 0.0
    }
  ]
}