{
  "path": "../bed1/16427222147942639132_0.png",
  "width": 300,
  "height": 250,
  "texts": [
    {
      "x": 15,
      "y": 65,
      "w": 140,
      "h": 44,
      "text": "腳得差;",
      "score": 0.03
    },
    {
      "x": 14,
      "y": 110,
      "w": 234,
      "h": 48,
      "text": "影響生活質素?",
      "score": 1.0
    },
    {
      "x": 245,
      "y": 195,
      "w": 34,
      "h": 20,
      "text": "feuly",
      "score": 0.42
    },
    {
      "x": 229,
      "y": 225,
      "w": 66,
      "h": 20,
      "text": "庵汛床循",
      "score": 0.02
    }
  ]
}