{
  "path": "../bed1/16991973282035722352_1.png",
  "width": 200,
  "height": 200,
  "texts": [
    {
      "x": 54,
      "y": 2,
      "w": 92,
      "h": 24,
      "text": "SINCMAX",
      "score": 0.84
    },
    {
      "x": 95,
      "y": 65,
      "w": 58,
      "h": 14,
      "text": "OCT STRIHG",
      "score": 0.05
    },
    {
      "x": 95,
      "y": 66,
      "w": 105,
      "h": 27,
      "text": "枕頭樂列X100",
      "score": 0.95
    },
    {
      "x": 95,
      "y": 87,
      "w": 34,
      "h": 12,
      "text": "eimir",
      "score": 0.01
    },
    {
      "x": 137,
      "y": 87,
      "w": 60,
      "h": 12,
      "text": "1111",
      "score": 0.01
    },
    {
      "x": 89,
      "y": 101,
      "w": 94,
      "h": 42,
      "text": "$899",
      "score": 0.99
    },
    {
      "x": 181,
      "y": 123,
      "w": 14,
      "h": 18,
      "text": "固",
      "score": 0.97
    },
    {
      "x": 153,
      "y": 137,
      "w": 44,
      "h": 14,
      "text": "tit",
      "score": 0.0
    },
    {
      "x": 19,
      "y": 167,
      "w": 20,
      "h": 12,
      "text": "哦",
      "score": 0.0
    },
    {
      "x": 19,
      "y": 185,
      "w": 44,
      "h": 12,
      "text": "#",
      "score": 0.04
    }
  ]
}