{
  "path": "../bed1/17612736168665807439_1.png",
  "width": 728,
  "height": 90,
  "texts": [
    {
      "x": 639,
      "y": 11,
      "w": 80,
      "h": 20,
      "text": "立即選購!",
      "score": 0.92
    },
    {
      "x": 189,
      "y": 15,
      "w": 248,
      "h": 38,
      "text": "購買床褥可以;3,000起",
      "score": 1.0
    },
    {
      "x": 24,
      "y": 42,
      "w": 122,
      "h": 30,
      "text": "TEMPUR",
      "score": 1.0
    },
    {
      "x": 188,
      "y": 50,
      "w": 112,
      "h": 28,
      "text": "加配木床架",
      "score": 1.0
    },
    {
      "x": 629,
      "y": 67,
      "w": 90,
      "h": 16,
      "text": "0忠丑t執莎年虱齣<",
      "score": 0.0
    }
  ]
}