{
  "path": "../bed1/17612736168665807439_0.png",
  "width": 728,
  "height": 90,
  "texts": [
    {
      "x": 158,
      "y": 12,
      "w": 90,
      "h": 28,
      "text": "全線門市",
      "score": 1.0
    },
    {
      "x": 638,
      "y": 10,
      "w": 80,
      "h": 24,
      "text": "立即選購!",
      "score": 0.93
    },
    {
      "x": 24,
      "y": 42,
      "w": 122,
      "h": 30,
      "text": "TEMPUR",
      "score": 1.0
    },
    {
      "x": 160,
      "y": 38,
      "w": 198,
      "h": 28,
      "text": "TEMPUR%舒壓床褥",
      "score": 0.41
    },
    {
      "x": 352,
      "y": 8,
      "w": 125,
      "h": 80,
      "text": "85",
      "score": 1.0
    },
    {
      "x": 442,
      "y": 52,
      "w": 28,
      "h": 30,
      "text": "折",
      "score": 1.0
    },
    {
      "x": 277,
      "y": 67,
      "w": 80,
      "h": 18,
      "text": "鬼妥篠熬玉9印齣京",
      "score": 0.0
    }
  ]
}