{
  "path": "../bed1/17884822923251018489_1.png",
  "width": 300,
  "height": 600,
  "texts": [
    {
      "x": 26,
      "y": 58,
      "w": 250,
      "h": 32,
      "text": "獨家專利欽合承托彈簧",
      "score": 0.81
    },
    {
      "x": 64,
      "y": 98,
      "w": 176,
      "h": 32,
      "text": "讓您享受奢華的",
      "score": 0.96
    },
    {
      "x": 126,
      "y": 150,
      "w": 120,
      "h": 48,
      "text": "級睡眠",
      "score": 0.95
    },
    {
      "x": 32,
      "y": 430,
      "w": 168,
      "h": 32,
      "text": "立即踏出第一步",
      "score": 0.86
    },
    {
      "x": 230,
      "y": 536,
      "w": 46,
      "h": 24,
      "text": "Seall.",
      "score": 0.2
    },
    {
      "x": 211,
      "y": 573,
      "w": 82,
      "h": 20,
      "text": "絲漣床桶",
      "score": 0.29
    }
  ]
}