{
  "path": "../bed1/18172167052855655335_0.png",
  "width": 250,
  "height": 250,
  "texts": [
    {
      "x": 70,
      "y": 4,
      "w": 112,
      "h": 26,
      "text": "SlNCMAX",
      "score": 0.44
    },
    {
      "x": 28,
      "y": 50,
      "w": 204,
      "h": 32,
      "text": "點止舒服咁簡單?",
      "score": 0.99
    },
    {
      "x": 25,
      "y": 233,
      "w": 54,
      "h": 14,
      "text": "虱三##",
      "score": 0.0
    }
  ]
}