{
  "path": "../bed1/1818416541488255170_2.png",
  "width": 300,
  "height": 600,
  "texts": [
    {
      "x": 46,
      "y": 14,
      "w": 210,
      "h": 48,
      "text": "SINCMAX",
      "score": 0.64
    },
    {
      "x": 54,
      "y": 246,
      "w": 194,
      "h": 50,
      "text": "VIP 專享",
      "score": 0.94
    },
    {
      "x": 68,
      "y": 300,
      "w": 162,
      "h": 28,
      "text": "(原價 $19,999起)",
      "score": 0.87
    },
    {
      "x": 44,
      "y": 332,
      "w": 204,
      "h": 52,
      "text": "$13,999起",
      "score": 1.0
    },
    {
      "x": 205,
      "y": 573,
      "w": 80,
      "h": 18,
      "text": "惺患受條款*束",
      "score": 0.0
    }
  ]
}