{
  "path": "../bed1/208026436823649682_1.png",
  "width": 300,
  "height": 250,
  "texts": [
    {
      "x": 192,
      "y": 28,
      "w": 47,
      "h": 29,
      "text": "Sedly.",
      "score": 0.49
    },
    {
      "x": 172,
      "y": 68,
      "w": 86,
      "h": 24,
      "text": "絲漣床櫥",
      "score": 0.3
    },
    {
      "x": 134,
      "y": 116,
      "w": 158,
      "h": 26,
      "text": "感應身體曲線筊化",
      "score": 0.39
    },
    {
      "x": 152,
      "y": 140,
      "w": 120,
      "h": 26,
      "text": "確保脊骨保持",
      "score": 1.0
    },
    {
      "x": 151,
      "y": 165,
      "w": 126,
      "h": 40,
      "text": "自然平直",
      "score": 0.99
    }
  ]
}