{
  "path": "../bed1/3004560939060350300_0.png",
  "width": 160,
  "height": 600,
  "texts": [
    {
      "x": 18,
      "y": 48,
      "w": 123,
      "h": 30,
      "text": "TEMPUR",
      "score": 0.99
    },
    {
      "x": 12,
      "y": 108,
      "w": 113,
      "h": 38,
      "text": "全線門市",
      "score": 1.0
    },
    {
      "x": 14,
      "y": 142,
      "w": 144,
      "h": 32,
      "text": "TEMPURo",
      "score": 0.95
    },
    {
      "x": 14,
      "y": 169,
      "w": 105,
      "h": 30,
      "text": "舒壓床褥",
      "score": 1.0
    },
    {
      "x": 4,
      "y": 204,
      "w": 132,
      "h": 100,
      "text": "85",
      "score": 1.0
    },
    {
      "x": 115,
      "y": 257,
      "w": 38,
      "h": 40,
      "text": "折",
      "score": 1.0
    },
    {
      "x": 26,
      "y": 540,
      "w": 114,
      "h": 32,
      "text": "立即選購!",
      "score": 0.98
    },
    {
      "x": 37,
      "y": 579,
      "w": 88,
      "h": 16,
      "text": "優虫f侮敖8卑刮%束",
      "score": 0.0
    }
  ]
}