{
  "path": "../bed1/3005601993904900439_1.png",
  "width": 300,
  "height": 250,
  "texts": [
    {
      "x": 94,
      "y": 2,
      "w": 112,
      "h": 28,
      "text": "SINCMAX",
      "score": 0.55
    },
    {
      "x": 40,
      "y": 34,
      "w": 224,
      "h": 24,
      "text": "E|PoWER睡眠科技",
      "score": 0.98
    },
    {
      "x": 39,
      "y": 62,
      "w": 101,
      "h": 24,
      "text": "能雖回q",
      "score": 1.0
    },
    {
      "x": 169,
      "y": 62,
      "w": 97,
      "h": 24,
      "text": "旺康 睡 眠",
      "score": 0.05
    },
    {
      "x": 13,
      "y": 231,
      "w": 64,
      "h": 16,
      "text": "a足倆nn束",
      "score": 0.0
    }
  ]
}