{
  "path": "../bed1/3363907601905544138_0.png",
  "width": 250,
  "height": 250,
  "texts": [
    {
      "x": 68,
      "y": 4,
      "w": 114,
      "h": 26,
      "text": "SINCMAX",
      "score": 0.71
    },
    {
      "x": 28,
      "y": 50,
      "w": 204,
      "h": 30,
      "text": "點止舒服咁簡單?",
      "score": 0.99
    },
    {
      "x": 25,
      "y": 231,
      "w": 54,
      "h": 14,
      "text": "1三k",
      "score": 0.0
    }
  ]
}