{
  "path": "../bed1/3549315183816419479_1.png",
  "width": 200,
  "height": 200,
  "texts": [
    {
      "x": 52,
      "y": 0,
      "w": 94,
      "h": 24,
      "text": "SNCMAX",
      "score": 0.79
    },
    {
      "x": 18,
      "y": 26,
      "w": 168,
      "h": 24,
      "text": "ENPOWER\"匯眠科技",
      "score": 0.58
    },
    {
      "x": 39,
      "y": 51,
      "w": 52,
      "h": 16,
      "text": "億日祖",
      "score": 0.01
    },
    {
      "x": 131,
      "y": 49,
      "w": 36,
      "h": 18,
      "text": "進 h",
      "score": 0.0
    }
  ]
}