{
  "path": "../bed1/3549315183816419479_2.png",
  "width": 200,
  "height": 200,
  "texts": [
    {
      "x": 52,
      "y": 0,
      "w": 96,
      "h": 24,
      "text": "SINOMAX",
      "score": 0.68
    },
    {
      "x": 11,
      "y": 27,
      "w": 58,
      "h": 20,
      "text": "VIP 卉卓",
      "score": 0.16
    },
    {
      "x": 9,
      "y": 53,
      "w": 62,
      "h": 20,
      "text": ";13,999起",
      "score": 0.93
    },
    {
      "x": 69,
      "y": 31,
      "w": 66,
      "h": 42,
      "text": "7折",
      "score": 0.99
    }
  ]
}