{
  "path": "../bed1/395801303125243385_1.png",
  "width": 336,
  "height": 280,
  "texts": [
    {
      "x": 25,
      "y": 15,
      "w": 278,
      "h": 61,
      "text": "Sooly澳洲進口床褥",
      "score": 1.0
    },
    {
      "x": 32,
      "y": 76,
      "w": 272,
      "h": 28,
      "text": "讓你與伴侶感受篆華睡眠體驗",
      "score": 0.53
    },
    {
      "x": 272,
      "y": 218,
      "w": 40,
      "h": 24,
      "text": "Gedly",
      "score": 0.19
    },
    {
      "x": 22,
      "y": 232,
      "w": 166,
      "h": 32,
      "text": "立即踏出第一步",
      "score": 0.96
    },
    {
      "x": 255,
      "y": 251,
      "w": 74,
      "h": 20,
      "text": "絲泄床褥",
      "score": 0.16
    }
  ]
}