{
  "path": "../bed1/4123965830105769849_1.png",
  "width": 728,
  "height": 90,
  "texts": [
    {
      "x": 457,
      "y": 13,
      "w": 18,
      "h": 22,
      "text": "刀",
      "score": 0.32
    },
    {
      "x": 37,
      "y": 27,
      "w": 142,
      "h": 36,
      "text": "SNNOMAX",
      "score": 0.44
    },
    {
      "x": 238,
      "y": 32,
      "w": 154,
      "h": 30,
      "text": "小童桌椅套裝",
      "score": 0.72
    },
    {
      "x": 468,
      "y": 20,
      "w": 216,
      "h": 48,
      "text": "低至$3,499起",
      "score": 0.58
    }
  ]
}