{
  "path": "../bed1/4123965830105769849_0.png",
  "width": 728,
  "height": 90,
  "texts": [
    {
      "x": 301,
      "y": 5,
      "w": 59,
      "h": 25,
      "text": "Weleme",
      "score": 0.41
    },
    {
      "x": 419,
      "y": 13,
      "w": 30,
      "h": 20,
      "text": "#3",
      "score": 0.11
    },
    {
      "x": 464,
      "y": 18,
      "w": 74,
      "h": 30,
      "text": "優惠期",
      "score": 0.01
    },
    {
      "x": 37,
      "y": 27,
      "w": 142,
      "h": 36,
      "text": "SNNOMAX",
      "score": 0.44
    },
    {
      "x": 224,
      "y": 24,
      "w": 228,
      "h": 56,
      "text": "ECc{toScHog",
      "score": 0.05
    },
    {
      "x": 572,
      "y": 26,
      "w": 113,
      "h": 38,
      "text": "立即選購",
      "score": 0.99
    },
    {
      "x": 464,
      "y": 46,
      "w": 52,
      "h": 30,
      "text": "有阻",
      "score": 0.07
    }
  ]
}