{
  "path": "../bed1/4724465292203537983_1.png",
  "width": 200,
  "height": 200,
  "texts": [
    {
      "x": 52,
      "y": 0,
      "w": 94,
      "h": 24,
      "text": "SINCMAX",
      "score": 0.73
    },
    {
      "x": 20,
      "y": 24,
      "w": 164,
      "h": 20,
      "text": "ENPOWER\"匣眠科枝",
      "score": 0.02
    },
    {
      "x": 57,
      "y": 51,
      "w": 14,
      "h": 16,
      "text": "日",
      "score": 0.22
    },
    {
      "x": 131,
      "y": 49,
      "w": 36,
      "h": 18,
      "text": "嗔 吐",
      "score": 0.01
    }
  ]
}