{
  "path": "../bed1/4726520534982844470_0.png",
  "width": 320,
  "height": 50,
  "texts": [
    {
      "x": 17,
      "y": 11,
      "w": 30,
      "h": 16,
      "text": "featu.",
      "score": 0.17
    },
    {
      "x": 85,
      "y": 9,
      "w": 220,
      "h": 36,
      "text": "限量精選只限3天",
      "score": 0.98
    },
    {
      "x": 5,
      "y": 33,
      "w": 54,
      "h": 17,
      "text": " 沮床楣",
      "score": 0.02
    }
  ]
}