{
  "path": "../bed1/4838472949786921761_2.png",
  "width": 728,
  "height": 90,
  "texts": [
    {
      "x": 269,
      "y": 13,
      "w": 208,
      "h": 38,
      "text": "一張好既床褥",
      "score": 0.1
    },
    {
      "x": 658,
      "y": 24,
      "w": 44,
      "h": 24,
      "text": "Senly.",
      "score": 0.19
    },
    {
      "x": 225,
      "y": 43,
      "w": 278,
      "h": 40,
      "text": "係你既人生轉捩點",
      "score": 0.09
    },
    {
      "x": 641,
      "y": 59,
      "w": 78,
      "h": 20,
      "text": "赫漣床楣",
      "score": 0.09
    }
  ]
}