{
  "path": "../bed1/4913252069925470014_1.png",
  "width": 300,
  "height": 600,
  "texts": [
    {
      "x": 89,
      "y": 253,
      "w": 166,
      "h": 36,
      "text": "張好嘸床褥",
      "score": 0.05
    },
    {
      "x": 23,
      "y": 291,
      "w": 256,
      "h": 38,
      "text": "係你:人生轉捩點",
      "score": 0.09
    },
    {
      "x": 232,
      "y": 536,
      "w": 44,
      "h": 24,
      "text": "Sedlly.",
      "score": 0.1
    },
    {
      "x": 210,
      "y": 570,
      "w": 84,
      "h": 24,
      "text": "絲漣床褥",
      "score": 0.05
    }
  ]
}