{
  "path": "../bed1/4938111560820837717.png",
  "width": 2292,
  "height": 1200,
  "texts": [
    {
      "x": 102,
      "y": 74,
      "w": 174,
      "h": 102,
      "text": "Soall.",
      "score": 0.1
    },
    {
      "x": 1979,
      "y": 149,
      "w": 215,
      "h": 88,
      "text": "UPT0",
      "score": 0.47
    },
    {
      "x": 33,
      "y": 221,
      "w": 309,
      "h": 82,
      "text": "絲漣床褥",
      "score": 0.98
    },
    {
      "x": 1097,
      "y": 450,
      "w": 154,
      "h": 38,
      "text": "GFhmii",
      "score": 0.04
    },
    {
      "x": 1962,
      "y": 232,
      "w": 265,
      "h": 309,
      "text": "%",
      "score": 1.0
    },
    {
      "x": 1666,
      "y": 516,
      "w": 605,
      "h": 378,
      "text": "OFF",
      "score": 0.67
    },
    {
      "x": 2064,
      "y": 892,
      "w": 143,
      "h": 38,
      "text": "月h=3定皿{",
      "score": 0.0
    },
    {
      "x": 290,
      "y": 970,
      "w": 1006,
      "h": 171,
      "text": "全線酒店床褥",
      "score": 0.72
    },
    {
      "x": 1404,
      "y": 934,
      "w": 829,
      "h": 210,
      "text": "全年最抵買",
      "score": 0.6
    }
  ]
}