{
  "path": "../bed1/4955357565856065021_1.png",
  "width": 300,
  "height": 250,
  "texts": [
    {
      "x": 94,
      "y": 30,
      "w": 111,
      "h": 26,
      "text": "Sedly.BEDFRAM",
      "score": 0.69
    },
    {
      "x": 89,
      "y": 71,
      "w": 124,
      "h": 40,
      "text": "自由配搭",
      "score": 1.0
    },
    {
      "x": 62,
      "y": 112,
      "w": 52,
      "h": 26,
      "text": "16款",
      "score": 0.99
    },
    {
      "x": 178,
      "y": 112,
      "w": 54,
      "h": 26,
      "text": "30款",
      "score": 0.99
    },
    {
      "x": 45,
      "y": 137,
      "w": 84,
      "h": 20,
      "text": "時尚床頭板",
      "score": 0.85
    },
    {
      "x": 149,
      "y": 137,
      "w": 108,
      "h": 20,
      "text": "布藝|真皮|仿皮",
      "score": 0.13
    }
  ]
}