{
  "path": "../bed1/499298814060428709_1.png",
  "width": 320,
  "height": 50,
  "texts": [
    {
      "x": 11,
      "y": 15,
      "w": 76,
      "h": 20,
      "text": "SINOMAX",
      "score": 0.53
    },
    {
      "x": 180,
      "y": 12,
      "w": 138,
      "h": 25,
      "text": "$1<10,899",
      "score": 0.29
    },
    {
      "x": 217,
      "y": 23,
      "w": 28,
      "h": 14,
      "text": "I",
      "score": 0.0
    }
  ]
}