{
  "path": "../bed1/5010236247926697227_0.png",
  "width": 300,
  "height": 250,
  "texts": [
    {
      "x": 14,
      "y": 22,
      "w": 80,
      "h": 24,
      "text": "TEMPUR",
      "score": 0.6
    },
    {
      "x": 13,
      "y": 55,
      "w": 94,
      "h": 20,
      "text": "舒唾床褥枕頭",
      "score": 0.39
    },
    {
      "x": 74,
      "y": 74,
      "w": 32,
      "h": 24,
      "text": "低至",
      "score": 0.99
    },
    {
      "x": 13,
      "y": 81,
      "w": 66,
      "h": 90,
      "text": "5",
      "score": 1.0
    },
    {
      "x": 69,
      "y": 121,
      "w": 40,
      "h": 40,
      "text": "折",
      "score": 1.0
    },
    {
      "x": 15,
      "y": 177,
      "w": 72,
      "h": 20,
      "text": "全線獸鬥店",
      "score": 0.0
    },
    {
      "x": 19,
      "y": 227,
      "w": 70,
      "h": 16,
      "text": "=7",
      "score": 0.03
    },
    {
      "x": 245,
      "y": 233,
      "w": 50,
      "h": 14,
      "text": "田",
      "score": 0.01
    }
  ]
}