{
  "path": "../bed1/5021740231056219554_2.png",
  "width": 336,
  "height": 280,
  "texts": [
    {
      "x": 36,
      "y": 36,
      "w": 268,
      "h": 30,
      "text": "為您身體提供最理想承托",
      "score": 0.71
    },
    {
      "x": 35,
      "y": 64,
      "w": 265,
      "h": 44,
      "text": "體驗前所未有舒適感",
      "score": 0.99
    },
    {
      "x": 272,
      "y": 218,
      "w": 40,
      "h": 24,
      "text": "Gedly.",
      "score": 0.12
    },
    {
      "x": 22,
      "y": 232,
      "w": 166,
      "h": 32,
      "text": "立即踏出第一步",
      "score": 0.91
    },
    {
      "x": 255,
      "y": 251,
      "w": 74,
      "h": 20,
      "text": "絲測床裾",
      "score": 0.01
    }
  ]
}