{
  "path": "../bed1/5150892801291187051_1.png",
  "width": 336,
  "height": 280,
  "texts": [
    {
      "x": 277,
      "y": 23,
      "w": 34,
      "h": 20,
      "text": "Jedi.",
      "score": 0.14
    },
    {
      "x": 12,
      "y": 28,
      "w": 198,
      "h": 26,
      "text": "SpineCare Platinum",
      "score": 0.85
    },
    {
      "x": 260,
      "y": 52,
      "w": 68,
      "h": 24,
      "text": "森漣床橋",
      "score": 0.0
    },
    {
      "x": 11,
      "y": 101,
      "w": 78,
      "h": 20,
      "text": "fooooi",
      "score": 0.01
    },
    {
      "x": 105,
      "y": 90,
      "w": 114,
      "h": 36,
      "text": "$6,540起",
      "score": 0.87
    }
  ]
}