{
  "path": "../bed1/5286142659213018499_0.png",
  "width": 320,
  "height": 50,
  "texts": [
    {
      "x": 102,
      "y": 2,
      "w": 120,
      "h": 26,
      "text": "澳洲 Jeoly.床褥",
      "score": 0.44
    },
    {
      "x": 277,
      "y": 9,
      "w": 28,
      "h": 18,
      "text": "deuui",
      "score": 0.05
    },
    {
      "x": 102,
      "y": 24,
      "w": 122,
      "h": 24,
      "text": "5星級酒店選用",
      "score": 0.99
    },
    {
      "x": 265,
      "y": 33,
      "w": 52,
      "h": 17,
      "text": "耗紐*栖",
      "score": 0.0
    }
  ]
}