{
  "path": "../bed1/5654297851990955722_2.png",
  "width": 728,
  "height": 90,
  "texts": [
    {
      "x": 235,
      "y": 21,
      "w": 282,
      "h": 40,
      "text": "#我要試 TEMPUR",
      "score": 0.99
    },
    {
      "x": 18,
      "y": 40,
      "w": 132,
      "h": 32,
      "text": "TEMPUR",
      "score": 1.0
    }
  ]
}