{
  "path": "../bed1/5764058257595375614_1.png",
  "width": 728,
  "height": 90,
  "texts": [
    {
      "x": 31,
      "y": 25,
      "w": 42,
      "h": 20,
      "text": "Jeulu.",
      "score": 0.23
    },
    {
      "x": 147,
      "y": 25,
      "w": 346,
      "h": 40,
      "text": "7月19-21日低至26折",
      "score": 0.98
    },
    {
      "x": 542,
      "y": 30,
      "w": 112,
      "h": 32,
      "text": "查詢優惠",
      "score": 1.0
    },
    {
      "x": 13,
      "y": 59,
      "w": 78,
      "h": 20,
      "text": "絲漣床楣",
      "score": 0.02
    }
  ]
}