{
  "path": "../bed1/6132885214539282105_1.png",
  "width": 160,
  "height": 600,
  "texts": [
    {
      "x": 26,
      "y": 38,
      "w": 114,
      "h": 30,
      "text": "TEMPUR",
      "score": 1.0
    },
    {
      "x": 53,
      "y": 73,
      "w": 40,
      "h": 40,
      "text": "h",
      "score": 0.01
    },
    {
      "x": 28,
      "y": 148,
      "w": 106,
      "h": 24,
      "text": "美國太空總署",
      "score": 0.96
    },
    {
      "x": 4,
      "y": 168,
      "w": 154,
      "h": 24,
      "text": "研發物料及唯一認證",
      "score": 0.99
    },
    {
      "x": 28,
      "y": 420,
      "w": 115,
      "h": 24,
      "text": "全線舒壓床褥",
      "score": 0.97
    },
    {
      "x": 24,
      "y": 442,
      "w": 136,
      "h": 76,
      "text": "65折",
      "score": 0.62
    },
    {
      "x": 74,
      "y": 514,
      "w": 84,
      "h": 24,
      "text": "$9,945#",
      "score": 0.48
    },
    {
      "x": 6,
      "y": 520,
      "w": 54,
      "h": 32,
      "text": "最後",
      "score": 1.0
    },
    {
      "x": 4,
      "y": 544,
      "w": 54,
      "h": 30,
      "text": "機會",
      "score": 0.99
    },
    {
      "x": 6,
      "y": 570,
      "w": 116,
      "h": 30,
      "text": "至5月26日",
      "score": 0.99
    }
  ]
}