{
  "path": "../bed1/6465082535342751477_1.png",
  "width": 728,
  "height": 90,
  "texts": [
    {
      "x": 326,
      "y": 8,
      "w": 104,
      "h": 26,
      "text": "Sensation",
      "score": 1.0
    },
    {
      "x": 572,
      "y": 6,
      "w": 86,
      "h": 28,
      "text": "十 h頸枕",
      "score": 0.07
    },
    {
      "x": 690,
      "y": 8,
      "w": 34,
      "h": 32,
      "text": "豔",
      "score": 0.0
    },
    {
      "x": 329,
      "y": 29,
      "w": 60,
      "h": 20,
      "text": "21cm 床褥",
      "score": 0.22
    },
    {
      "x": 436,
      "y": 0,
      "w": 131,
      "h": 76,
      "text": "65折",
      "score": 1.0
    },
    {
      "x": 16,
      "y": 42,
      "w": 104,
      "h": 26,
      "text": "TEMPUR",
      "score": 0.99
    },
    {
      "x": 266,
      "y": 56,
      "w": 158,
      "h": 24,
      "text": "永安獨家 最後一週",
      "score": 0.35
    },
    {
      "x": 445,
      "y": 75,
      "w": 120,
      "h": 12,
      "text": "估日E怡=;281##11|]f",
      "score": 0.0
    }
  ]
}