{
  "path": "../bed1/6761166029002967264_0.png",
  "width": 300,
  "height": 250,
  "texts": [
    {
      "x": 56,
      "y": 116,
      "w": 190,
      "h": 32,
      "text": "雄鋸高消費市場",
      "score": 1.0
    },
    {
      "x": 55,
      "y": 147,
      "w": 194,
      "h": 43,
      "text": "澳洲No.1床褥",
      "score": 0.99
    },
    {
      "x": 245,
      "y": 195,
      "w": 34,
      "h": 20,
      "text": "feuly",
      "score": 0.47
    },
    {
      "x": 228,
      "y": 222,
      "w": 64,
      "h": 24,
      "text": "耕澀床福",
      "score": 0.02
    }
  ]
}