{
  "path": "../bed1/6907507052932151805_1.png",
  "width": 200,
  "height": 200,
  "texts": [
    {
      "x": 17,
      "y": 23,
      "w": 66,
      "h": 20,
      "text": "MMPUR",
      "score": 0.08
    },
    {
      "x": 29,
      "y": 41,
      "w": 44,
      "h": 18,
      "text": "酐匣床品",
      "score": 0.03
    },
    {
      "x": 49,
      "y": 59,
      "w": 108,
      "h": 20,
      "text": "唯一奘國太空總署",
      "score": 0.29
    },
    {
      "x": 50,
      "y": 74,
      "w": 110,
      "h": 24,
      "text": "認證之床褥及睡枕",
      "score": 0.14
    },
    {
      "x": 157,
      "y": 141,
      "w": 36,
      "h": 20,
      "text": "最後",
      "score": 0.48
    },
    {
      "x": 17,
      "y": 149,
      "w": 74,
      "h": 16,
      "text": "白auar2i1Am",
      "score": 0.0
    },
    {
      "x": 15,
      "y": 161,
      "w": 50,
      "h": 20,
      "text": "$4,660",
      "score": 0.93
    },
    {
      "x": 154,
      "y": 156,
      "w": 40,
      "h": 24,
      "text": "機薈",
      "score": 0.02
    },
    {
      "x": 145,
      "y": 179,
      "w": 48,
      "h": 18,
      "text": "至4月28日",
      "score": 0.79
    }
  ]
}