{
  "path": "../bed1/6907507052932151805_0.png",
  "width": 200,
  "height": 200,
  "texts": [
    {
      "x": 149,
      "y": 9,
      "w": 36,
      "h": 12,
      "text": "由i0",
      "score": 0.0
    },
    {
      "x": 17,
      "y": 23,
      "w": 66,
      "h": 20,
      "text": "MMPUR",
      "score": 0.08
    },
    {
      "x": 29,
      "y": 41,
      "w": 44,
      "h": 18,
      "text": "酐匣床品",
      "score": 0.03
    },
    {
      "x": 57,
      "y": 63,
      "w": 22,
      "h": 16,
      "text": "低至",
      "score": 0.67
    },
    {
      "x": 21,
      "y": 71,
      "w": 61,
      "h": 51,
      "text": "折",
      "score": 1.0
    },
    {
      "x": 17,
      "y": 133,
      "w": 54,
      "h": 18,
      "text": "3店",
      "score": 0.11
    },
    {
      "x": 157,
      "y": 141,
      "w": 36,
      "h": 20,
      "text": "最後",
      "score": 0.46
    },
    {
      "x": 42,
      "y": 152,
      "w": 30,
      "h": 30,
      "text": "髏",
      "score": 0.09
    },
    {
      "x": 156,
      "y": 156,
      "w": 38,
      "h": 24,
      "text": "機薈",
      "score": 0.02
    },
    {
      "x": 145,
      "y": 179,
      "w": 48,
      "h": 18,
      "text": "至4月28日",
      "score": 0.79
    }
  ]
}