{
  "path": "../bed1/7074633467024160011_0.png",
  "width": 250,
  "height": 250,
  "texts": [
    {
      "x": 70,
      "y": 4,
      "w": 112,
      "h": 26,
      "text": "SNOMAX",
      "score": 0.93
    },
    {
      "x": 16,
      "y": 43,
      "w": 147,
      "h": 50,
      "text": "上市5週年慶",
      "score": 0.97
    },
    {
      "x": 73,
      "y": 91,
      "w": 70,
      "h": 20,
      "text": "凡 兀指定床褂",
      "score": 0.0
    },
    {
      "x": 148,
      "y": 122,
      "w": 60,
      "h": 32,
      "text": "換購",
      "score": 1.0
    },
    {
      "x": 79,
      "y": 117,
      "w": 64,
      "h": 92,
      "text": "3",
      "score": 0.89
    },
    {
      "x": 148,
      "y": 148,
      "w": 60,
      "h": 24,
      "text": "油壓床架",
      "score": 0.96
    },
    {
      "x": 142,
      "y": 166,
      "w": 50,
      "h": 50,
      "text": "折",
      "score": 1.0
    }
  ]
}