{
  "path": "../bed1/7074633467024160011_2.png",
  "width": 250,
  "height": 250,
  "texts": [
    {
      "x": 70,
      "y": 4,
      "w": 110,
      "h": 26,
      "text": "SINCMX",
      "score": 0.98
    },
    {
      "x": 16,
      "y": 43,
      "w": 147,
      "h": 50,
      "text": "上市5週年慶",
      "score": 0.37
    },
    {
      "x": 149,
      "y": 157,
      "w": 92,
      "h": 24,
      "text": "Rilakkuma",
      "score": 0.99
    },
    {
      "x": 149,
      "y": 177,
      "w": 92,
      "h": 20,
      "text": "期固限定區烹",
      "score": 0.01
    },
    {
      "x": 143,
      "y": 197,
      "w": 104,
      "h": 36,
      "text": "$199起",
      "score": 0.79
    },
    {
      "x": 193,
      "y": 233,
      "w": 46,
      "h": 16,
      "text": "Ef8匠1",
      "score": 0.0
    }
  ]
}