{
  "path": "../bed1/7135717420140457737_2.png",
  "width": 336,
  "height": 280,
  "texts": [
    {
      "x": 277,
      "y": 23,
      "w": 34,
      "h": 20,
      "text": "Jedi.",
      "score": 0.18
    },
    {
      "x": 12,
      "y": 28,
      "w": 164,
      "h": 24,
      "text": "Premium Taurus",
      "score": 0.88
    },
    {
      "x": 262,
      "y": 52,
      "w": 66,
      "h": 24,
      "text": "綵漣床橋",
      "score": 0.01
    },
    {
      "x": 75,
      "y": 53,
      "w": 54,
      "h": 40,
      "text": "off",
      "score": 1.0
    },
    {
      "x": 11,
      "y": 101,
      "w": 78,
      "h": 20,
      "text": "$6666芯",
      "score": 0.02
    },
    {
      "x": 106,
      "y": 91,
      "w": 110,
      "h": 32,
      "text": "$8,440起",
      "score": 0.96
    }
  ]
}