{
  "path": "../bed1/729973217195412005_0.png",
  "width": 300,
  "height": 250,
  "texts": [
    {
      "x": 8,
      "y": 12,
      "w": 126,
      "h": 24,
      "text": "#我要試 TEMPUR",
      "score": 0.67
    },
    {
      "x": 226,
      "y": 8,
      "w": 68,
      "h": 28,
      "text": "託MPUR",
      "score": 0.12
    },
    {
      "x": 23,
      "y": 49,
      "w": 260,
      "h": 60,
      "text": "絕望枕頭用家",
      "score": 0.98
    },
    {
      "x": 114,
      "y": 106,
      "w": 78,
      "h": 32,
      "text": "大招募",
      "score": 1.0
    },
    {
      "x": 213,
      "y": 137,
      "w": 50,
      "h": 18,
      "text": "立即參加",
      "score": 0.35
    }
  ]
}