{
  "path": "../bed1/7576311765515146111_0.png",
  "width": 300,
  "height": 250,
  "texts": [
    {
      "x": 194,
      "y": 32,
      "w": 40,
      "h": 24,
      "text": "Sedly",
      "score": 0.38
    },
    {
      "x": 172,
      "y": 68,
      "w": 86,
      "h": 24,
      "text": "絲漣床褥",
      "score": 0.24
    },
    {
      "x": 144,
      "y": 112,
      "w": 138,
      "h": 32,
      "text": "Sodby.專利彈簧",
      "score": 0.18
    },
    {
      "x": 162,
      "y": 138,
      "w": 100,
      "h": 26,
      "text": "市場獨有的",
      "score": 0.98
    },
    {
      "x": 139,
      "y": 161,
      "w": 148,
      "h": 42,
      "text": "3段式承托",
      "score": 0.56
    }
  ]
}