{
  "path": "../bed1/7714950019097251409_0.png",
  "width": 336,
  "height": 280,
  "texts": [
    {
      "x": 21,
      "y": 17,
      "w": 281,
      "h": 45,
      "text": "Soohy.全新電動儲物床架",
      "score": 0.4
    },
    {
      "x": 80,
      "y": 70,
      "w": 172,
      "h": 26,
      "text": "智能升降 怪位收納",
      "score": 0.38
    },
    {
      "x": 23,
      "y": 233,
      "w": 32,
      "h": 18,
      "text": "deuli.",
      "score": 0.06
    },
    {
      "x": 11,
      "y": 257,
      "w": 58,
      "h": 20,
      "text": "糕赴床楣",
      "score": 0.0
    }
  ]
}