{
  "path": "../bed1/7752807788278799916_1.png",
  "width": 728,
  "height": 90,
  "texts": [
    {
      "x": 102,
      "y": 0,
      "w": 275,
      "h": 52,
      "text": "Seoly澳洲進口床褥",
      "score": 1.0
    },
    {
      "x": 658,
      "y": 24,
      "w": 44,
      "h": 24,
      "text": "Senly.",
      "score": 0.2
    },
    {
      "x": 177,
      "y": 42,
      "w": 257,
      "h": 48,
      "text": "將5星級享受帶回家中",
      "score": 0.91
    },
    {
      "x": 659,
      "y": 59,
      "w": 58,
      "h": 20,
      "text": "漣床楣",
      "score": 0.49
    }
  ]
}