{
  "path": "../bed1/8196529480080228868.png",
  "width": 2063,
  "height": 1080,
  "texts": [
    {
      "x": 420,
      "y": 972,
      "w": 49,
      "h": 44,
      "text": "6",
      "score": 0.05
    }
  ]
}