{
  "path": "../bed1/8239665439598316312_0.png",
  "width": 320,
  "height": 50,
  "texts": [
    {
      "x": 15,
      "y": 9,
      "w": 32,
      "h": 20,
      "text": "dedli.",
      "score": 0.03
    },
    {
      "x": 64,
      "y": 6,
      "w": 68,
      "h": 24,
      "text": "S060",
      "score": 0.27
    },
    {
      "x": 227,
      "y": 15,
      "w": 86,
      "h": 20,
      "text": "7月24日-29日",
      "score": 0.96
    },
    {
      "x": 3,
      "y": 24,
      "w": 215,
      "h": 26,
      "text": "森紐氐确SUMMER HOME FAlR",
      "score": 0.72
    }
  ]
}