{
  "path": "../bed1/8464739179985545393_0.png",
  "width": 336,
  "height": 280,
  "texts": [
    {
      "x": 260,
      "y": 46,
      "w": 70,
      "h": 24,
      "text": "粽漣床褥",
      "score": 0.06
    },
    {
      "x": 186,
      "y": 116,
      "w": 126,
      "h": 24,
      "text": "水安百貨獨家侵惠",
      "score": 0.59
    },
    {
      "x": 257,
      "y": 143,
      "w": 28,
      "h": 20,
      "text": "低",
      "score": 0.98
    },
    {
      "x": 197,
      "y": 141,
      "w": 107,
      "h": 87,
      "text": "5折",
      "score": 1.0
    },
    {
      "x": 13,
      "y": 201,
      "w": 127,
      "h": 43,
      "text": "超級購物日",
      "score": 1.0
    },
    {
      "x": 0,
      "y": 218,
      "w": 225,
      "h": 52,
      "text": "送高達$i000永安禮券`",
      "score": 0.19
    },
    {
      "x": 176,
      "y": 252,
      "w": 152,
      "h": 24,
      "text": "最後一迴至5月|2日",
      "score": 0.56
    }
  ]
}