{
  "path": "../bed1/8753125727755850210_0.png",
  "width": 300,
  "height": 600,
  "texts": [
    {
      "x": 33,
      "y": 61,
      "w": 234,
      "h": 42,
      "text": "雄鋸高消費市場",
      "score": 1.0
    },
    {
      "x": 32,
      "y": 100,
      "w": 238,
      "h": 50,
      "text": "澳洲No.1床褥",
      "score": 0.99
    },
    {
      "x": 73,
      "y": 499,
      "w": 14,
      "h": 16,
      "text": "#7",
      "score": 0.01
    },
    {
      "x": 51,
      "y": 503,
      "w": 26,
      "h": 20,
      "text": "Cto",
      "score": 0.23
    },
    {
      "x": 230,
      "y": 536,
      "w": 46,
      "h": 24,
      "text": "Seall.",
      "score": 0.11
    },
    {
      "x": 211,
      "y": 573,
      "w": 82,
      "h": 20,
      "text": "絲漣床桶",
      "score": 0.05
    }
  ]
}