{
  "path": "../bed1/9336947057197586987_0.png",
  "width": 200,
  "height": 200,
  "texts": [
    {
      "x": 48,
      "y": 20,
      "w": 42,
      "h": 24,
      "text": "IPUR",
      "score": 0.89
    },
    {
      "x": 3,
      "y": 61,
      "w": 128,
      "h": 20,
      "text": "丹麥製床褥 枕頭",
      "score": 0.6
    },
    {
      "x": 4,
      "y": 82,
      "w": 114,
      "h": 30,
      "text": "NASA力證",
      "score": 0.99
    },
    {
      "x": 4,
      "y": 108,
      "w": 122,
      "h": 32,
      "text": "令身體放鬆",
      "score": 0.99
    },
    {
      "x": 7,
      "y": 187,
      "w": 34,
      "h": 13,
      "text": "0n##55",
      "score": 0.19
    },
    {
      "x": 55,
      "y": 187,
      "w": 44,
      "h": 13,
      "text": "日=@r31",
      "score": 0.0
    }
  ]
}