{
  "path": "../bed1/9336947057197586987_2.png",
  "width": 200,
  "height": 200,
  "texts": [
    {
      "x": 9,
      "y": 11,
      "w": 81,
      "h": 36,
      "text": "籠MPUR",
      "score": 1.0
    },
    {
      "x": 10,
      "y": 54,
      "w": 48,
      "h": 30,
      "text": "枕頭",
      "score": 1.0
    },
    {
      "x": 173,
      "y": 61,
      "w": 22,
      "h": 16,
      "text": "丘至",
      "score": 0.11
    },
    {
      "x": 19,
      "y": 83,
      "w": 68,
      "h": 20,
      "text": "再門店揭家",
      "score": 0.01
    },
    {
      "x": 120,
      "y": 66,
      "w": 52,
      "h": 74,
      "text": "5",
      "score": 1.0
    },
    {
      "x": 80,
      "y": 144,
      "w": 112,
      "h": 24,
      "text": "?190%用京*同",
      "score": 0.0
    },
    {
      "x": 83,
      "y": 163,
      "w": 78,
      "h": 18,
      "text": "考[杆嬸枕頭]",
      "score": 0.0
    },
    {
      "x": 5,
      "y": 181,
      "w": 138,
      "h": 19,
      "text": "背岩\"響\"\"Tu\"+111",
      "score": 0.0
    }
  ]
}