{
  "path": "../bed1/9367737046269207468_0.png",
  "width": 300,
  "height": 250,
  "texts": [
    {
      "x": 19,
      "y": 17,
      "w": 28,
      "h": 16,
      "text": "Jeoi",
      "score": 0.06
    },
    {
      "x": 9,
      "y": 39,
      "w": 50,
      "h": 18,
      "text": "朴亂床橢",
      "score": 0.0
    },
    {
      "x": 41,
      "y": 107,
      "w": 134,
      "h": 40,
      "text": "參加遊戲",
      "score": 0.98
    },
    {
      "x": 223,
      "y": 135,
      "w": 22,
      "h": 20,
      "text": "fun",
      "score": 0.01
    },
    {
      "x": 27,
      "y": 173,
      "w": 246,
      "h": 36,
      "text": "贏取-晚免費五星級酒店住宿",
      "score": 0.3
    }
  ]
}