{
  "path": "../bed1/9428100986039707509_1.png",
  "width": 468,
  "height": 60,
  "texts": [
    {
      "x": 156,
      "y": 13,
      "w": 139,
      "h": 18,
      "text": "ENPOWER伐",
      "score": 0.26
    },
    {
      "x": 18,
      "y": 16,
      "w": 112,
      "h": 26,
      "text": "SINCMAX",
      "score": 0.58
    }
  ]
}