{
  "path": "../bed1/9428100986039707509_2.png",
  "width": 468,
  "height": 60,
  "texts": [
    {
      "x": 171,
      "y": 5,
      "w": 58,
      "h": 20,
      "text": "VIP中卓",
      "score": 0.12
    },
    {
      "x": 185,
      "y": 19,
      "w": 20,
      "h": 12,
      "text": "3",
      "score": 0.01
    },
    {
      "x": 18,
      "y": 16,
      "w": 112,
      "h": 26,
      "text": "SINCMAX",
      "score": 0.52
    },
    {
      "x": 167,
      "y": 29,
      "w": 62,
      "h": 20,
      "text": "$13,9991",
      "score": 0.19
    },
    {
      "x": 229,
      "y": 7,
      "w": 64,
      "h": 44,
      "text": "7折",
      "score": 0.99
    }
  ]
}