{
  "path": "../bed1/9790853517233288686_0.png",
  "width": 728,
  "height": 90,
  "texts": [
    {
      "x": 35,
      "y": 27,
      "w": 32,
      "h": 20,
      "text": "Jeuli",
      "score": 0.15
    },
    {
      "x": 168,
      "y": 18,
      "w": 47,
      "h": 31,
      "text": "Hotel",
      "score": 0.97
    },
    {
      "x": 297,
      "y": 7,
      "w": 186,
      "h": 36,
      "text": "纏眠 藕斷'絲漣",
      "score": 0.92
    },
    {
      "x": 21,
      "y": 55,
      "w": 60,
      "h": 20,
      "text": "栽漣床柵",
      "score": 0.01
    },
    {
      "x": 187,
      "y": 53,
      "w": 22,
      "h": 18,
      "text": "Sult",
      "score": 0.12
    },
    {
      "x": 246,
      "y": 48,
      "w": 230,
      "h": 26,
      "text": "親身體驗5星級指定床褥",
      "score": 0.38
    }
  ]
}