{
  "path": "../bed1/9801969965423057830_0.png",
  "width": 728,
  "height": 90,
  "texts": [
    {
      "x": 658,
      "y": 22,
      "w": 46,
      "h": 24,
      "text": "Geuliy.",
      "score": 0.15
    },
    {
      "x": 189,
      "y": 25,
      "w": 414,
      "h": 44,
      "text": "澳洲 Sooly.床褥5星級酒店選用",
      "score": 0.99
    },
    {
      "x": 640,
      "y": 58,
      "w": 80,
      "h": 24,
      "text": "絲漣床櫥",
      "score": 0.05
    }
  ]
}