{
  "path": "../bed1/9896979208752909625_2.png",
  "width": 728,
  "height": 90,
  "texts": [
    {
      "x": 126,
      "y": 14,
      "w": 166,
      "h": 32,
      "text": "一張好慨床褥",
      "score": 0.15
    },
    {
      "x": 658,
      "y": 24,
      "w": 44,
      "h": 24,
      "text": "Senll.",
      "score": 0.12
    },
    {
      "x": 98,
      "y": 46,
      "w": 222,
      "h": 32,
      "text": "係你唧人生轉捩點",
      "score": 1.0
    },
    {
      "x": 641,
      "y": 59,
      "w": 78,
      "h": 20,
      "text": "赫漣床楣",
      "score": 0.3
    }
  ]
}